BLE,15:13:37:480879266,F7826DA6-4FA2-4E98-8024-BC5B71E0893E,10764,20350,-77,-90
BLE,15:13:37:497206359,F7826DA6-4FA2-4E98-8024-BC5B71E0893E,10764,20350,-77,-92
BLE,15:13:41:097401352,F7826DA6-4FA2-4E98-8024-BC5B71E0893E,10764,20350,-77,-90
BLE,15:13:41:390154797,F7826DA6-4FA2-4E98-8024-BC5B71E0893E,10764,20350,-77,-91
BLE,15:13:44:073779289,F7826DA6-4FA2-4E98-8024-BC5B71E0893E,10764,20350,-77,-91
BLE,15:13:47:545280956,F7826DA6-4FA2-4E98-8024-BC5B71E0893E,10764,20350,-77,-91
BLE,15:13:48:128644633,F7826DA6-4FA2-4E98-8024-BC5B71E0893E,10764,20350,-77,-92
BLE,15:13:48:143504518,F7826DA6-4FA2-4E98-8024-BC5B71E0893E,10764,20350,-77,-91
BLE,15:13:50:612880633,F7826DA6-4FA2-4E98-8024-BC5B71E0893E,10764,20350,-77,-91
BLE,15:13:53:083279405,F7826DA6-4FA2-4E98-8024-BC5B71E0893E,10764,20350,-77,-90
BLE,15:13:53:441012584,F7826DA6-4FA2-4E98-8024-BC5B71E0893E,10764,20350,-77,-92
BLE,15:13:53:455910583,F7826DA6-4FA2-4E98-8024-BC5B71E0893E,10764,20350,-77,-91
BLE,15:14:03:913508340,F7826DA6-4FA2-4E98-8024-BC5B71E0893E,10764,20350,-77,-92
BLE,15:14:08:145505897,F7826DA6-4FA2-4E98-8024-BC5B71E0893E,10764,20350,-77,-92
BLE,15:14:10:099105904,F7826DA6-4FA2-4E98-8024-BC5B71E0893E,10764,20350,-77,-91
BLE,15:14:12:233705944,F7826DA6-4FA2-4E98-8024-BC5B71E0893E,10764,20350,-77,-91
BLE,15:14:13:652852202,F7826DA6-4FA2-4E98-8024-BC5B71E0893E,10764,20350,-77,-91
BLE,15:14:14:002303576,F7826DA6-4FA2-4E98-8024-BC5B71E0893E,10764,20350,-77,-92
BLE,15:14:14:017700650,F7826DA6-4FA2-4E98-8024-BC5B71E0893E,10764,20350,-77,-91
BLE,15:14:20:281095553,F7826DA6-4FA2-4E98-8024-BC5B71E0893E,10764,20350,-77,-91
BLE,15:14:29:713053534,F7826DA6-4FA2-4E98-8024-BC5B71E0893E,10764,20350,-77,-92
BLE,15:14:35:173472496,F7826DA6-4FA2-4E98-8024-BC5B71E0893E,10764,20350,-77,-92
BLE,15:14:36:004086685,F7826DA6-4FA2-4E98-8024-BC5B71E0893E,10764,20350,-77,-91
BLE,15:14:43:841012425,F7826DA6-4FA2-4E98-8024-BC5B71E0893E,10764,20350,-77,-92
BLE,15:15:00:705999211,F7826DA6-4FA2-4E98-8024-BC5B71E0893E,10764,20350,-77,-91
BLE,15:15:06:906343355,F7826DA6-4FA2-4E98-8024-BC5B71E0893E,10764,20350,-77,-91
BLE,15:15:08:269875812,F7826DA6-4FA2-4E98-8024-BC5B71E0893E,10764,20350,-77,-92
BLE,15:15:18:325376461,F7826DA6-4FA2-4E98-8024-BC5B71E0893E,10764,20350,-77,-91
BLE,15:15:18:942591150,F7826DA6-4FA2-4E98-8024-BC5B71E0893E,10764,20350,-77,-92
BLE,15:15:21:073816918,F7826DA6-4FA2-4E98-8024-BC5B71E0893E,10764,20350,-77,-91
BLE,15:15:21:783485742,F7826DA6-4FA2-4E98-8024-BC5B71E0893E,10764,20350,-77,-90
BLE,15:15:23:555748433,F7826DA6-4FA2-4E98-8024-BC5B71E0893E,10764,20350,-77,-91
BLE,15:15:23:574113325,F7826DA6-4FA2-4E98-8024-BC5B71E0893E,10764,20350,-77,-92
BLE,15:15:26:993394237,F7826DA6-4FA2-4E98-8024-BC5B71E0893E,10764,20350,-77,-91
BLE,15:15:42:617437404,F7826DA6-4FA2-4E98-8024-BC5B71E0893E,10764,20350,-77,-92
BLE,15:15:46:833226372,F7826DA6-4FA2-4E98-8024-BC5B71E0893E,10764,20350,-77,-93
BLE,15:15:48:058630027,F7826DA6-4FA2-4E98-8024-BC5B71E0893E,10764,20350,-77,-92
BLE,15:15:50:182573939,F7826DA6-4FA2-4E98-8024-BC5B71E0893E,10764,20350,-77,-92
BLE,15:15:59:233176191,F7826DA6-4FA2-4E98-8024-BC5B71E0893E,10764,20350,-77,-92
BLE,15:16:05:689860474,F7826DA6-4FA2-4E98-8024-BC5B71E0893E,10764,20350,-77,-91
BLE,15:16:09:169102896,F7826DA6-4FA2-4E98-8024-BC5B71E0893E,10764,20350,-77,-93
BLE,15:16:09:712339523,F7826DA6-4FA2-4E98-8024-BC5B71E0893E,10764,20350,-77,-93
BLE,15:16:13:369162086,F7826DA6-4FA2-4E98-8024-BC5B71E0893E,10764,20350,-77,-91
BLE,15:16:20:065529753,F7826DA6-4FA2-4E98-8024-BC5B71E0893E,10764,20350,-77,-93
BLE,15:16:21:774721043,F7826DA6-4FA2-4E98-8024-BC5B71E0893E,10764,20350,-77,-92
BLE,15:16:29:985643534,F7826DA6-4FA2-4E98-8024-BC5B71E0893E,10764,20350,-77,-91
BLE,15:16:30:296423054,F7826DA6-4FA2-4E98-8024-BC5B71E0893E,10764,20350,-77,-92
BLE,15:16:35:689301710,F7826DA6-4FA2-4E98-8024-BC5B71E0893E,10764,20350,-77,-94
BLE,15:16:38:665201459,F7826DA6-4FA2-4E98-8024-BC5B71E0893E,10764,20350,-77,-92
BLE,15:16:41:393074822,F7826DA6-4FA2-4E98-8024-BC5B71E0893E,10764,20350,-77,-92
BLE,15:16:47:593407144,F7826DA6-4FA2-4E98-8024-BC5B71E0893E,10764,20350,-77,-92
BLE,15:16:51:321457546,F7826DA6-4FA2-4E98-8024-BC5B71E0893E,10764,20350,-77,-92
BLE,15:16:51:579593748,F7826DA6-4FA2-4E98-8024-BC5B71E0893E,10764,20350,-77,-91
BLE,15:16:52:641985460,F7826DA6-4FA2-4E98-8024-BC5B71E0893E,10764,20350,-77,-91
BLE,15:16:52:998072719,F7826DA6-4FA2-4E98-8024-BC5B71E0893E,10764,20350,-77,-90
BLE,15:16:53:700947514,F7826DA6-4FA2-4E98-8024-BC5B71E0893E,10764,20350,-77,-92
BLE,15:16:57:513225726,F7826DA6-4FA2-4E98-8024-BC5B71E0893E,10764,20350,-77,-91
BLE,15:17:01:977537871,F7826DA6-4FA2-4E98-8024-BC5B71E0893E,10764,20350,-77,-91
BLE,15:17:16:869852323,F7826DA6-4FA2-4E98-8024-BC5B71E0893E,10764,20350,-77,-91
BLE,15:17:17:823818850,F7826DA6-4FA2-4E98-8024-BC5B71E0893E,10764,20350,-77,-91
BLE,15:17:18:181646646,F7826DA6-4FA2-4E98-8024-BC5B71E0893E,10764,20350,-77,-91
BLE,15:17:18:197161002,F7826DA6-4FA2-4E98-8024-BC5B71E0893E,10764,20350,-77,-90
BLE,15:17:19:246809031,F7826DA6-4FA2-4E98-8024-BC5B71E0893E,10764,20350,-77,-91
BLE,15:17:20:654806841,F7826DA6-4FA2-4E98-8024-BC5B71E0893E,10764,20350,-77,-91
BLE,15:17:21:369623922,F7826DA6-4FA2-4E98-8024-BC5B71E0893E,10764,20350,-77,-91
BLE,15:17:22:436025640,F7826DA6-4FA2-4E98-8024-BC5B71E0893E,10764,20350,-77,-91
BLE,15:17:24:200118263,F7826DA6-4FA2-4E98-8024-BC5B71E0893E,10764,20350,-77,-91
BLE,15:17:25:975948143,F7826DA6-4FA2-4E98-8024-BC5B71E0893E,10764,20350,-77,-91
BLE,15:17:32:481813066,F7826DA6-4FA2-4E98-8024-BC5B71E0893E,10764,20350,-77,-91
BLE,15:17:38:929742190,F7826DA6-4FA2-4E98-8024-BC5B71E0893E,10764,20350,-77,-91
BLE,15:17:43:641545340,F7826DA6-4FA2-4E98-8024-BC5B71E0893E,10764,20350,-77,-91
BLE,15:17:47:114030496,F7826DA6-4FA2-4E98-8024-BC5B71E0893E,10764,20350,-77,-91
BLE,15:17:47:975597350,F7826DA6-4FA2-4E98-8024-BC5B71E0893E,10764,20350,-77,-91
BLE,15:17:48:686725888,F7826DA6-4FA2-4E98-8024-BC5B71E0893E,10764,20350,-77,-92
BLE,15:17:52:817355940,F7826DA6-4FA2-4E98-8024-BC5B71E0893E,10764,20350,-77,-91
BLE,15:17:54:022861300,F7826DA6-4FA2-4E98-8024-BC5B71E0893E,10764,20350,-77,-91
BLE,15:17:55:086595786,F7826DA6-4FA2-4E98-8024-BC5B71E0893E,10764,20350,-77,-91
BLE,15:18:01:993832208,F7826DA6-4FA2-4E98-8024-BC5B71E0893E,10764,20350,-77,-92
BLE,15:18:03:236371201,F7826DA6-4FA2-4E98-8024-BC5B71E0893E,10764,20350,-77,-90
BLE,15:18:03:588579185,F7826DA6-4FA2-4E98-8024-BC5B71E0893E,10764,20350,-77,-91
BLE,15:18:04:651579825,F7826DA6-4FA2-4E98-8024-BC5B71E0893E,10764,20350,-77,-90
BLE,15:18:05:713487962,F7826DA6-4FA2-4E98-8024-BC5B71E0893E,10764,20350,-77,-92
BLE,15:18:10:921442214,F7826DA6-4FA2-4E98-8024-BC5B71E0893E,10764,20350,-77,-91
BLE,15:18:16:885484744,F7826DA6-4FA2-4E98-8024-BC5B71E0893E,10764,20350,-77,-91
BLE,15:18:21:833223105,F7826DA6-4FA2-4E98-8024-BC5B71E0893E,10764,20350,-77,-90
BLE,15:18:30:017515630,F7826DA6-4FA2-4E98-8024-BC5B71E0893E,10764,20350,-77,-90
BLE,15:18:40:185028394,F7826DA6-4FA2-4E98-8024-BC5B71E0893E,10764,20350,-77,-90
BLE,15:18:42:268424482,F7826DA6-4FA2-4E98-8024-BC5B71E0893E,10764,20350,-77,-92
BLE,15:18:44:045178301,F7826DA6-4FA2-4E98-8024-BC5B71E0893E,10764,20350,-77,-92
BLE,15:18:47:379401287,F7826DA6-4FA2-4E98-8024-BC5B71E0893E,10764,20350,-77,-90
BLE,15:18:50:601067262,F7826DA6-4FA2-4E98-8024-BC5B71E0893E,10764,20350,-77,-90
BLE,15:18:57:792990347,F7826DA6-4FA2-4E98-8024-BC5B71E0893E,10764,20350,-77,-90
BLE,15:19:01:265385366,F7826DA6-4FA2-4E98-8024-BC5B71E0893E,10764,20350,-77,-90
BLE,15:19:05:480476173,F7826DA6-4FA2-4E98-8024-BC5B71E0893E,10764,20350,-77,-88
BLE,15:19:07:123234095,F7826DA6-4FA2-4E98-8024-BC5B71E0893E,10764,20350,-77,-92
BLE,15:19:07:478898817,F7826DA6-4FA2-4E98-8024-BC5B71E0893E,10764,20350,-77,-92
BLE,15:19:11:202243062,F7826DA6-4FA2-4E98-8024-BC5B71E0893E,10764,20350,-77,-93
BLE,15:19:18:377856851,F7826DA6-4FA2-4E98-8024-BC5B71E0893E,10764,20350,-77,-93
BLE,15:19:25:821786072,F7826DA6-4FA2-4E98-8024-BC5B71E0893E,10764,20350,-77,-90
BLE,15:19:31:522150805,F7826DA6-4FA2-4E98-8024-BC5B71E0893E,10764,20350,-77,-93
BLE,15:19:33:039971751,F7826DA6-4FA2-4E98-8024-BC5B71E0893E,10764,20350,-77,-91
BLE,15:19:34:460942509,F7826DA6-4FA2-4E98-8024-BC5B71E0893E,10764,20350,-77,-90
BLE,15:19:36:247008552,F7826DA6-4FA2-4E98-8024-BC5B71E0893E,10764,20350,-77,-92
BLE,15:19:36:595835752,F7826DA6-4FA2-4E98-8024-BC5B71E0893E,10764,20350,-77,-93
BLE,15:19:38:022684512,F7826DA6-4FA2-4E98-8024-BC5B71E0893E,10764,20350,-77,-90
BLE,15:19:40:507622490,F7826DA6-4FA2-4E98-8024-BC5B71E0893E,10764,20350,-77,-93
BLE,15:19:48:138161519,F7826DA6-4FA2-4E98-8024-BC5B71E0893E,10764,20350,-77,-91
BLE,15:19:50:085726876,F7826DA6-4FA2-4E98-8024-BC5B71E0893E,10764,20350,-77,-89
BLE,15:19:56:321383766,F7826DA6-4FA2-4E98-8024-BC5B71E0893E,10764,20350,-77,-89
BLE,15:20:03:265750737,F7826DA6-4FA2-4E98-8024-BC5B71E0893E,10764,20350,-77,-89
BLE,15:20:05:358467426,F7826DA6-4FA2-4E98-8024-BC5B71E0893E,10764,20350,-77,-90
BLE,15:20:07:977535297,F7826DA6-4FA2-4E98-8024-BC5B71E0893E,10764,20350,-77,-92
BLE,15:20:09:270434383,F7826DA6-4FA2-4E98-8024-BC5B71E0893E,10764,20350,-77,-90
BLE,15:20:11:945710295,F7826DA6-4FA2-4E98-8024-BC5B71E0893E,10764,20350,-77,-90
BLE,15:20:13:184420653,F7826DA6-4FA2-4E98-8024-BC5B71E0893E,10764,20350,-77,-89
BLE,15:20:14:251419615,F7826DA6-4FA2-4E98-8024-BC5B71E0893E,10764,20350,-77,-90
BLE,15:20:18:890012522,F7826DA6-4FA2-4E98-8024-BC5B71E0893E,10764,20350,-77,-92
BLE,15:20:24:345560925,F7826DA6-4FA2-4E98-8024-BC5B71E0893E,10764,20350,-77,-89
BLE,15:20:25:235478757,F7826DA6-4FA2-4E98-8024-BC5B71E0893E,10764,20350,-77,-92
BLE,15:20:26:296466454,F7826DA6-4FA2-4E98-8024-BC5B71E0893E,10764,20350,-77,-90
BLE,15:20:31:785241379,F7826DA6-4FA2-4E98-8024-BC5B71E0893E,10764,20350,-77,-90
BLE,15:20:35:009404803,F7826DA6-4FA2-4E98-8024-BC5B71E0893E,10764,20350,-77,-90
BLE,15:20:36:589363927,F7826DA6-4FA2-4E98-8024-BC5B71E0893E,10764,20350,-77,-89
BLE,15:20:36:606353845,F7826DA6-4FA2-4E98-8024-BC5B71E0893E,10764,20350,-77,-88
BLE,15:20:42:449882681,F7826DA6-4FA2-4E98-8024-BC5B71E0893E,10764,20350,-77,-90
BLE,15:20:48:413667727,F7826DA6-4FA2-4E98-8024-BC5B71E0893E,10764,20350,-77,-93
BLE,15:20:49:019105714,F7826DA6-4FA2-4E98-8024-BC5B71E0893E,10764,20350,-77,-92
BLE,15:20:49:733986972,F7826DA6-4FA2-4E98-8024-BC5B71E0893E,10764,20350,-77,-90
BLE,15:20:53:360943150,F7826DA6-4FA2-4E98-8024-BC5B71E0893E,10764,20350,-77,-92
BLE,15:20:54:336172812,F7826DA6-4FA2-4E98-8024-BC5B71E0893E,10764,20350,-77,-91
BLE,15:20:54:352913163,F7826DA6-4FA2-4E98-8024-BC5B71E0893E,10764,20350,-77,-89
BLE,15:20:55:756544467,F7826DA6-4FA2-4E98-8024-BC5B71E0893E,10764,20350,-77,-92
BLE,15:20:58:832602910,F7826DA6-4FA2-4E98-8024-BC5B71E0893E,10764,20350,-77,-93
BLE,15:20:59:671252521,F7826DA6-4FA2-4E98-8024-BC5B71E0893E,10764,20350,-77,-89
BLE,15:21:05:761325265,F7826DA6-4FA2-4E98-8024-BC5B71E0893E,10764,20350,-77,-92
BLE,15:21:07:498306496,F7826DA6-4FA2-4E98-8024-BC5B71E0893E,10764,20350,-77,-93
BLE,15:21:20:161851235,F7826DA6-4FA2-4E98-8024-BC5B71E0893E,10764,20350,-77,-92
BLE,15:21:26:841864507,F7826DA6-4FA2-4E98-8024-BC5B71E0893E,10764,20350,-77,-89
BLE,15:21:27:731030371,F7826DA6-4FA2-4E98-8024-BC5B71E0893E,10764,20350,-77,-89
BLE,15:21:29:145318875,F7826DA6-4FA2-4E98-8024-BC5B71E0893E,10764,20350,-77,-90
BLE,15:21:34:033894686,F7826DA6-4FA2-4E98-8024-BC5B71E0893E,10764,20350,-77,-89
BLE,15:21:37:012195924,F7826DA6-4FA2-4E98-8024-BC5B71E0893E,10764,20350,-77,-93
BLE,15:21:37:299598887,F7826DA6-4FA2-4E98-8024-BC5B71E0893E,10764,20350,-77,-89
BLE,15:21:42:713909097,F7826DA6-4FA2-4E98-8024-BC5B71E0893E,10764,20350,-77,-89
BLE,15:21:45:937810254,F7826DA6-4FA2-4E98-8024-BC5B71E0893E,10764,20350,-77,-89
BLE,15:21:56:374124959,F7826DA6-4FA2-4E98-8024-BC5B71E0893E,10764,20350,-77,-88
BLE,15:21:56:496743442,F7826DA6-4FA2-4E98-8024-BC5B71E0893E,10764,20350,-77,-93
BLE,15:22:03:297788356,F7826DA6-4FA2-4E98-8024-BC5B71E0893E,10764,20350,-77,-90
BLE,15:22:10:741968146,F7826DA6-4FA2-4E98-8024-BC5B71E0893E,10764,20350,-77,-93
BLE,15:22:12:490449973,F7826DA6-4FA2-4E98-8024-BC5B71E0893E,10764,20350,-77,-91
BLE,15:22:14:270651218,F7826DA6-4FA2-4E98-8024-BC5B71E0893E,10764,20350,-77,-91
BLE,15:22:17:185252298,F7826DA6-4FA2-4E98-8024-BC5B71E0893E,10764,20350,-77,-93
BLE,15:22:23:881667225,F7826DA6-4FA2-4E98-8024-BC5B71E0893E,10764,20350,-77,-92
BLE,15:22:24:898748041,F7826DA6-4FA2-4E98-8024-BC5B71E0893E,10764,20350,-77,-90
BLE,15:22:24:916700371,F7826DA6-4FA2-4E98-8024-BC5B71E0893E,10764,20350,-77,-92
BLE,15:22:35:300943894,F7826DA6-4FA2-4E98-8024-BC5B71E0893E,10764,20350,-77,-92
BLE,15:22:36:618333105,F7826DA6-4FA2-4E98-8024-BC5B71E0893E,10764,20350,-77,-91
BLE,15:22:38:392237889,F7826DA6-4FA2-4E98-8024-BC5B71E0893E,10764,20350,-77,-89
BLE,15:22:38:742383862,F7826DA6-4FA2-4E98-8024-BC5B71E0893E,10764,20350,-77,-90
BLE,15:22:39:451568261,F7826DA6-4FA2-4E98-8024-BC5B71E0893E,10764,20350,-77,-90
BLE,15:22:41:585499208,F7826DA6-4FA2-4E98-8024-BC5B71E0893E,10764,20350,-77,-90
BLE,15:22:41:942441655,F7826DA6-4FA2-4E98-8024-BC5B71E0893E,10764,20350,-77,-90
BLE,15:22:46:697238544,F7826DA6-4FA2-4E98-8024-BC5B71E0893E,10764,20350,-77,-88
BLE,15:22:46:924491394,F7826DA6-4FA2-4E98-8024-BC5B71E0893E,10764,20350,-77,-89
BLE,15:22:47:992415222,F7826DA6-4FA2-4E98-8024-BC5B71E0893E,10764,20350,-77,-92
BLE,15:22:53:145660338,F7826DA6-4FA2-4E98-8024-BC5B71E0893E,10764,20350,-77,-91
BLE,15:23:01:577171586,F7826DA6-4FA2-4E98-8024-BC5B71E0893E,10764,20350,-77,-91
BLE,15:23:06:308589293,F7826DA6-4FA2-4E98-8024-BC5B71E0893E,10764,20350,-77,-91
BLE,15:23:11:504921623,F7826DA6-4FA2-4E98-8024-BC5B71E0893E,10764,20350,-77,-91
BLE,15:23:12:115028299,F7826DA6-4FA2-4E98-8024-BC5B71E0893E,10764,20350,-77,-91
BLE,15:23:18:689249723,F7826DA6-4FA2-4E98-8024-BC5B71E0893E,10764,20350,-77,-92
BLE,15:23:20:640108364,F7826DA6-4FA2-4E98-8024-BC5B71E0893E,10764,20350,-77,-92
BLE,15:23:22:064474150,F7826DA6-4FA2-4E98-8024-BC5B71E0893E,10764,20350,-77,-92
BLE,15:23:26:145830472,F7826DA6-4FA2-4E98-8024-BC5B71E0893E,10764,20350,-77,-91
BLE,15:23:26:334778221,F7826DA6-4FA2-4E98-8024-BC5B71E0893E,10764,20350,-77,-92
BLE,15:23:28:118029598,F7826DA6-4FA2-4E98-8024-BC5B71E0893E,10764,20350,-77,-91
BLE,15:23:29:533687242,F7826DA6-4FA2-4E98-8024-BC5B71E0893E,10764,20350,-77,-92
BLE,15:23:30:250276441,F7826DA6-4FA2-4E98-8024-BC5B71E0893E,10764,20350,-77,-92
BLE,15:23:44:978018804,F7826DA6-4FA2-4E98-8024-BC5B71E0893E,10764,20350,-77,-91
BLE,15:23:47:276366617,F7826DA6-4FA2-4E98-8024-BC5B71E0893E,10764,20350,-77,-92
BLE,15:23:51:673834831,F7826DA6-4FA2-4E98-8024-BC5B71E0893E,10764,20350,-77,-93
BLE,15:23:54:913716580,F7826DA6-4FA2-4E98-8024-BC5B71E0893E,10764,20350,-77,-92
BLE,15:23:58:369874099,F7826DA6-4FA2-4E98-8024-BC5B71E0893E,10764,20350,-77,-92
BLE,15:24:04:085274099,F7826DA6-4FA2-4E98-8024-BC5B71E0893E,10764,20350,-77,-93
BLE,15:24:05:760798932,F7826DA6-4FA2-4E98-8024-BC5B71E0893E,10764,20350,-77,-93
BLE,15:24:09:033687308,F7826DA6-4FA2-4E98-8024-BC5B71E0893E,10764,20350,-77,-93
BLE,15:24:18:705609377,F7826DA6-4FA2-4E98-8024-BC5B71E0893E,10764,20350,-77,-91
BLE,15:24:19:593000655,F7826DA6-4FA2-4E98-8024-BC5B71E0893E,10764,20350,-77,-91
BLE,15:24:21:930237827,F7826DA6-4FA2-4E98-8024-BC5B71E0893E,10764,20350,-77,-92
BLE,15:24:23:862524794,F7826DA6-4FA2-4E98-8024-BC5B71E0893E,10764,20350,-77,-93
BLE,15:24:26:889905237,F7826DA6-4FA2-4E98-8024-BC5B71E0893E,10764,20350,-77,-90
BLE,15:24:29:192845400,F7826DA6-4FA2-4E98-8024-BC5B71E0893E,10764,20350,-77,-91
BLE,15:24:30:604571568,F7826DA6-4FA2-4E98-8024-BC5B71E0893E,10764,20350,-77,-92
BLE,15:24:34:577887546,F7826DA6-4FA2-4E98-8024-BC5B71E0893E,10764,20350,-77,-90
BLE,15:24:37:801539220,F7826DA6-4FA2-4E98-8024-BC5B71E0893E,10764,20350,-77,-91
BLE,15:24:38:077064770,F7826DA6-4FA2-4E98-8024-BC5B71E0893E,10764,20350,-77,-90
BLE,15:24:38:431031550,F7826DA6-4FA2-4E98-8024-BC5B71E0893E,10764,20350,-77,-92
BLE,15:24:39:500687889,F7826DA6-4FA2-4E98-8024-BC5B71E0893E,10764,20350,-77,-90
BLE,15:24:41:630591584,F7826DA6-4FA2-4E98-8024-BC5B71E0893E,10764,20350,-77,-91
BLE,15:24:41:984475530,F7826DA6-4FA2-4E98-8024-BC5B71E0893E,10764,20350,-77,-91
BLE,15:24:42:694405362,F7826DA6-4FA2-4E98-8024-BC5B71E0893E,10764,20350,-77,-90
BLE,15:24:45:737572234,F7826DA6-4FA2-4E98-8024-BC5B71E0893E,10764,20350,-77,-91
BLE,15:24:45:877388380,F7826DA6-4FA2-4E98-8024-BC5B71E0893E,10764,20350,-77,-91
BLE,15:24:51:689486438,F7826DA6-4FA2-4E98-8024-BC5B71E0893E,10764,20350,-77,-91
BLE,15:24:57:393465140,F7826DA6-4FA2-4E98-8024-BC5B71E0893E,10764,20350,-77,-91
BLE,15:24:57:573152260,F7826DA6-4FA2-4E98-8024-BC5B71E0893E,10764,20350,-77,-91
BLE,15:24:57:929561278,F7826DA6-4FA2-4E98-8024-BC5B71E0893E,10764,20350,-77,-92
BLE,15:25:01:361057407,F7826DA6-4FA2-4E98-8024-BC5B71E0893E,10764,20350,-77,-91
BLE,15:25:02:887482909,F7826DA6-4FA2-4E98-8024-BC5B71E0893E,10764,20350,-77,-92
BLE,15:25:03:596496248,F7826DA6-4FA2-4E98-8024-BC5B71E0893E,10764,20350,-77,-90
BLE,15:25:06:569342336,F7826DA6-4FA2-4E98-8024-BC5B71E0893E,10764,20350,-77,-92
BLE,15:25:10:041372255,F7826DA6-4FA2-4E98-8024-BC5B71E0893E,10764,20350,-77,-92
BLE,15:25:10:335680489,F7826DA6-4FA2-4E98-8024-BC5B71E0893E,10764,20350,-77,-92
BLE,15:25:11:762541550,F7826DA6-4FA2-4E98-8024-BC5B71E0893E,10764,20350,-77,-90
BLE,15:25:12:477753910,F7826DA6-4FA2-4E98-8024-BC5B71E0893E,10764,20350,-77,-92
BLE,15:25:13:892855723,F7826DA6-4FA2-4E98-8024-BC5B71E0893E,10764,20350,-77,-92
BLE,15:25:16:026378146,F7826DA6-4FA2-4E98-8024-BC5B71E0893E,10764,20350,-77,-92
BLE,15:25:17:097005803,F7826DA6-4FA2-4E98-8024-BC5B71E0893E,10764,20350,-77,-91
BLE,15:25:19:589494876,F7826DA6-4FA2-4E98-8024-BC5B71E0893E,10764,20350,-77,-92
BLE,15:25:19:605735527,F7826DA6-4FA2-4E98-8024-BC5B71E0893E,10764,20350,-77,-92
BLE,15:25:23:690089995,F7826DA6-4FA2-4E98-8024-BC5B71E0893E,10764,20350,-77,-91
BLE,15:25:24:251353507,F7826DA6-4FA2-4E98-8024-BC5B71E0893E,10764,20350,-77,-91
BLE,15:25:26:354415993,F7826DA6-4FA2-4E98-8024-BC5B71E0893E,10764,20350,-77,-90
BLE,15:25:26:370422765,F7826DA6-4FA2-4E98-8024-BC5B71E0893E,10764,20350,-77,-91
BLE,15:25:27:098626489,F7826DA6-4FA2-4E98-8024-BC5B71E0893E,10764,20350,-77,-91
BLE,15:25:27:442001907,F7826DA6-4FA2-4E98-8024-BC5B71E0893E,10764,20350,-77,-91
BLE,15:25:30:250505365,F7826DA6-4FA2-4E98-8024-BC5B71E0893E,10764,20350,-77,-90
BLE,15:25:32:859937199,F7826DA6-4FA2-4E98-8024-BC5B71E0893E,10764,20350,-77,-92
BLE,15:25:37:081724857,F7826DA6-4FA2-4E98-8024-BC5B71E0893E,10764,20350,-77,-92
BLE,15:25:37:691394207,F7826DA6-4FA2-4E98-8024-BC5B71E0893E,10764,20350,-77,-91
BLE,15:25:40:056764429,F7826DA6-4FA2-4E98-8024-BC5B71E0893E,10764,20350,-77,-92
BLE,15:25:40:538085182,F7826DA6-4FA2-4E98-8024-BC5B71E0893E,10764,20350,-77,-90
BLE,15:25:41:595564766,F7826DA6-4FA2-4E98-8024-BC5B71E0893E,10764,20350,-77,-89
BLE,15:25:45:011249467,F7826DA6-4FA2-4E98-8024-BC5B71E0893E,10764,20350,-77,-90
BLE,15:25:48:482192227,F7826DA6-4FA2-4E98-8024-BC5B71E0893E,10764,20350,-77,-92
BLE,15:25:51:457683014,F7826DA6-4FA2-4E98-8024-BC5B71E0893E,10764,20350,-77,-90
BLE,15:25:51:534965558,F7826DA6-4FA2-4E98-8024-BC5B71E0893E,10764,20350,-77,-92
BLE,15:25:55:674154458,F7826DA6-4FA2-4E98-8024-BC5B71E0893E,10764,20350,-77,-89
BLE,15:25:55:690913692,F7826DA6-4FA2-4E98-8024-BC5B71E0893E,10764,20350,-77,-91
BLE,15:25:56:143438864,F7826DA6-4FA2-4E98-8024-BC5B71E0893E,10764,20350,-77,-89
BLE,15:25:57:564898822,F7826DA6-4FA2-4E98-8024-BC5B71E0893E,10764,20350,-77,-89
BLE,15:25:57:917922549,F7826DA6-4FA2-4E98-8024-BC5B71E0893E,10764,20350,-77,-91
BLE,15:25:59:339632355,F7826DA6-4FA2-4E98-8024-BC5B71E0893E,10764,20350,-77,-90
BLE,15:26:00:764093779,F7826DA6-4FA2-4E98-8024-BC5B71E0893E,10764,20350,-77,-91
BLE,15:26:00:780173824,F7826DA6-4FA2-4E98-8024-BC5B71E0893E,10764,20350,-77,-92
BLE,15:26:06:338029894,F7826DA6-4FA2-4E98-8024-BC5B71E0893E,10764,20350,-77,-89
BLE,15:26:09:810118419,F7826DA6-4FA2-4E98-8024-BC5B71E0893E,10764,20350,-77,-91
BLE,15:26:09:826217484,F7826DA6-4FA2-4E98-8024-BC5B71E0893E,10764,20350,-77,-91
BLE,15:26:14:238861668,F7826DA6-4FA2-4E98-8024-BC5B71E0893E,10764,20350,-77,-92
BLE,15:26:17:994150954,F7826DA6-4FA2-4E98-8024-BC5B71E0893E,10764,20350,-77,-90
BLE,15:26:27:417917571,F7826DA6-4FA2-4E98-8024-BC5B71E0893E,10764,20350,-77,-90
BLE,15:26:28:788701828,F7826DA6-4FA2-4E98-8024-BC5B71E0893E,10764,20350,-77,-91
BLE,15:26:30:209815757,F7826DA6-4FA2-4E98-8024-BC5B71E0893E,10764,20350,-77,-91
BLE,15:26:30:564853863,F7826DA6-4FA2-4E98-8024-BC5B71E0893E,10764,20350,-77,-92
BLE,15:26:32:874328305,F7826DA6-4FA2-4E98-8024-BC5B71E0893E,10764,20350,-77,-91
BLE,15:26:33:039667643,F7826DA6-4FA2-4E98-8024-BC5B71E0893E,10764,20350,-77,-92
BLE,15:26:39:321418039,F7826DA6-4FA2-4E98-8024-BC5B71E0893E,10764,20350,-77,-92
BLE,15:26:48:021717174,F7826DA6-4FA2-4E98-8024-BC5B71E0893E,10764,20350,-77,-88
BLE,15:26:48:268778051,F7826DA6-4FA2-4E98-8024-BC5B71E0893E,10764,20350,-77,-92
BLE,15:26:53:705689708,F7826DA6-4FA2-4E98-8024-BC5B71E0893E,10764,20350,-77,-89
BLE,15:26:58:417588902,F7826DA6-4FA2-4E98-8024-BC5B71E0893E,10764,20350,-77,-90
BLE,15:27:01:157701170,F7826DA6-4FA2-4E98-8024-BC5B71E0893E,10764,20350,-77,-90
BLE,15:27:01:406739130,F7826DA6-4FA2-4E98-8024-BC5B71E0893E,10764,20350,-77,-92
BLE,15:27:02:819694280,F7826DA6-4FA2-4E98-8024-BC5B71E0893E,10764,20350,-77,-92
BLE,15:27:13:553328667,F7826DA6-4FA2-4E98-8024-BC5B71E0893E,10764,20350,-77,-90
BLE,15:27:17:268566979,F7826DA6-4FA2-4E98-8024-BC5B71E0893E,10764,20350,-77,-90
BLE,15:27:18:433196304,F7826DA6-4FA2-4E98-8024-BC5B71E0893E,10764,20350,-77,-91
BLE,15:27:18:449960224,F7826DA6-4FA2-4E98-8024-BC5B71E0893E,10764,20350,-77,-92
BLE,15:27:25:944795898,F7826DA6-4FA2-4E98-8024-BC5B71E0893E,10764,20350,-77,-90
BLE,15:27:26:252097793,F7826DA6-4FA2-4E98-8024-BC5B71E0893E,10764,20350,-77,-90
BLE,15:27:29:185483560,F7826DA6-4FA2-4E98-8024-BC5B71E0893E,10764,20350,-77,-90
BLE,15:27:33:137640786,F7826DA6-4FA2-4E98-8024-BC5B71E0893E,10764,20350,-77,-90
BLE,15:27:36:361839964,F7826DA6-4FA2-4E98-8024-BC5B71E0893E,10764,20350,-77,-89
BLE,15:28:05:873640335,F7826DA6-4FA2-4E98-8024-BC5B71E0893E,10764,20350,-77,-90
BLE,15:28:07:814825163,F7826DA6-4FA2-4E98-8024-BC5B71E0893E,10764,20350,-77,-90
BLE,15:28:09:593482663,F7826DA6-4FA2-4E98-8024-BC5B71E0893E,10764,20350,-77,-91
BLE,15:28:11:009280367,F7826DA6-4FA2-4E98-8024-BC5B71E0893E,10764,20350,-77,-91
BLE,15:28:38:610603703,F7826DA6-4FA2-4E98-8024-BC5B71E0893E,10764,20350,-77,-91
BLE,15:28:39:745125596,F7826DA6-4FA2-4E98-8024-BC5B71E0893E,10764,20350,-77,-91
BLE,15:28:51:257992697,F7826DA6-4FA2-4E98-8024-BC5B71E0893E,10764,20350,-77,-90
BLE,15:28:52:149465479,F7826DA6-4FA2-4E98-8024-BC5B71E0893E,10764,20350,-77,-90
BLE,15:28:57:225587175,F7826DA6-4FA2-4E98-8024-BC5B71E0893E,10764,20350,-77,-91
BLE,15:29:00:433784502,F7826DA6-4FA2-4E98-8024-BC5B71E0893E,10764,20350,-77,-90
BLE,15:29:05:889476495,F7826DA6-4FA2-4E98-8024-BC5B71E0893E,10764,20350,-77,-90
BLE,15:29:07:778595476,F7826DA6-4FA2-4E98-8024-BC5B71E0893E,10764,20350,-77,-90
BLE,15:29:14:570041638,F7826DA6-4FA2-4E98-8024-BC5B71E0893E,10764,20350,-77,-90
BLE,15:29:22:505694146,F7826DA6-4FA2-4E98-8024-BC5B71E0893E,10764,20350,-77,-90
BLE,15:29:26:738437598,F7826DA6-4FA2-4E98-8024-BC5B71E0893E,10764,20350,-77,-90
BLE,15:29:32:177679201,F7826DA6-4FA2-4E98-8024-BC5B71E0893E,10764,20350,-77,-90
BLE,15:29:43:337278226,F7826DA6-4FA2-4E98-8024-BC5B71E0893E,10764,20350,-77,-90
BLE,15:29:51:289746745,F7826DA6-4FA2-4E98-8024-BC5B71E0893E,10764,20350,-77,-90
BLE,15:29:54:746513238,F7826DA6-4FA2-4E98-8024-BC5B71E0893E,10764,20350,-77,-89
BLE,15:30:10:869912475,F7826DA6-4FA2-4E98-8024-BC5B71E0893E,10764,20350,-77,-90
BLE,15:30:11:694042171,F7826DA6-4FA2-4E98-8024-BC5B71E0893E,10764,20350,-77,-90
BLE,15:30:12:051071504,F7826DA6-4FA2-4E98-8024-BC5B71E0893E,10764,20350,-77,-91
BLE,15:30:15:834032545,F7826DA6-4FA2-4E98-8024-BC5B71E0893E,10764,20350,-77,-90
BLE,15:30:17:022752475,F7826DA6-4FA2-4E98-8024-BC5B71E0893E,10764,20350,-77,-90
BLE,15:30:22:030080154,F7826DA6-4FA2-4E98-8024-BC5B71E0893E,10764,20350,-77,-90
BLE,15:30:26:737898277,F7826DA6-4FA2-4E98-8024-BC5B71E0893E,10764,20350,-77,-89
BLE,15:30:32:194383109,F7826DA6-4FA2-4E98-8024-BC5B71E0893E,10764,20350,-77,-90
BLE,15:30:34:929857798,F7826DA6-4FA2-4E98-8024-BC5B71E0893E,10764,20350,-77,-88
BLE,15:30:42:609791161,F7826DA6-4FA2-4E98-8024-BC5B71E0893E,10764,20350,-77,-90
BLE,15:30:46:330237950,F7826DA6-4FA2-4E98-8024-BC5B71E0893E,10764,20350,-77,-90
BLE,15:30:52:797848044,F7826DA6-4FA2-4E98-8024-BC5B71E0893E,10764,20350,-77,-95
BLE,15:30:55:753803250,F7826DA6-4FA2-4E98-8024-BC5B71E0893E,10764,20350,-77,-91
BLE,15:30:57:985798176,F7826DA6-4FA2-4E98-8024-BC5B71E0893E,10764,20350,-77,-89
BLE,15:31:02:201696973,F7826DA6-4FA2-4E98-8024-BC5B71E0893E,10764,20350,-77,-93
BLE,15:31:04:219753505,F7826DA6-4FA2-4E98-8024-BC5B71E0893E,10764,20350,-77,-90
BLE,15:31:04:571442992,F7826DA6-4FA2-4E98-8024-BC5B71E0893E,10764,20350,-77,-92
BLE,15:31:07:657705206,F7826DA6-4FA2-4E98-8024-BC5B71E0893E,10764,20350,-77,-91
BLE,15:31:09:541608360,F7826DA6-4FA2-4E98-8024-BC5B71E0893E,10764,20350,-77,-92
BLE,15:31:10:602863749,F7826DA6-4FA2-4E98-8024-BC5B71E0893E,10764,20350,-77,-91
BLE,15:31:17:081608214,F7826DA6-4FA2-4E98-8024-BC5B71E0893E,10764,20350,-77,-91
BLE,15:31:19:489609112,F7826DA6-4FA2-4E98-8024-BC5B71E0893E,10764,20350,-77,-91
BLE,15:31:23:529888138,F7826DA6-4FA2-4E98-8024-BC5B71E0893E,10764,20350,-77,-92
BLE,15:31:28:241133503,F7826DA6-4FA2-4E98-8024-BC5B71E0893E,10764,20350,-77,-90
BLE,15:31:30:969538010,F7826DA6-4FA2-4E98-8024-BC5B71E0893E,10764,20350,-77,-91
BLE,15:31:39:897444797,F7826DA6-4FA2-4E98-8024-BC5B71E0893E,10764,20350,-77,-91
BLE,15:31:40:776579366,F7826DA6-4FA2-4E98-8024-BC5B71E0893E,10764,20350,-77,-92
BLE,15:31:42:202013876,F7826DA6-4FA2-4E98-8024-BC5B71E0893E,10764,20350,-77,-91
BLE,15:31:44:869429987,F7826DA6-4FA2-4E98-8024-BC5B71E0893E,10764,20350,-77,-91
BLE,15:31:46:108651155,F7826DA6-4FA2-4E98-8024-BC5B71E0893E,10764,20350,-77,-92
BLE,15:31:49:569129645,F7826DA6-4FA2-4E98-8024-BC5B71E0893E,10764,20350,-77,-92
BLE,15:31:55:025091862,F7826DA6-4FA2-4E98-8024-BC5B71E0893E,10764,20350,-77,-92
BLE,15:31:56:051267201,F7826DA6-4FA2-4E98-8024-BC5B71E0893E,10764,20350,-77,-91
BLE,15:32:00:233458220,F7826DA6-4FA2-4E98-8024-BC5B71E0893E,10764,20350,-77,-91
BLE,15:32:06:929098807,F7826DA6-4FA2-4E98-8024-BC5B71E0893E,10764,20350,-77,-93
BLE,15:32:07:431516716,F7826DA6-4FA2-4E98-8024-BC5B71E0893E,10764,20350,-77,-91
BLE,15:32:12:645021985,F7826DA6-4FA2-4E98-8024-BC5B71E0893E,10764,20350,-77,-90
BLE,15:32:12:770158354,F7826DA6-4FA2-4E98-8024-BC5B71E0893E,10764,20350,-77,-91
BLE,15:32:14:547117147,F7826DA6-4FA2-4E98-8024-BC5B71E0893E,10764,20350,-77,-91
BLE,15:32:16:324251878,F7826DA6-4FA2-4E98-8024-BC5B71E0893E,10764,20350,-77,-90
BLE,15:32:20:818178259,F7826DA6-4FA2-4E98-8024-BC5B71E0893E,10764,20350,-77,-91
BLE,15:32:20:933045873,F7826DA6-4FA2-4E98-8024-BC5B71E0893E,10764,20350,-77,-92
BLE,15:32:22:350745571,F7826DA6-4FA2-4E98-8024-BC5B71E0893E,10764,20350,-77,-91
BLE,15:32:28:258335421,F7826DA6-4FA2-4E98-8024-BC5B71E0893E,10764,20350,-77,-90
BLE,15:32:29:115071419,F7826DA6-4FA2-4E98-8024-BC5B71E0893E,10764,20350,-77,-90
BLE,15:32:33:218351545,F7826DA6-4FA2-4E98-8024-BC5B71E0893E,10764,20350,-77,-91
BLE,15:32:34:434124191,F7826DA6-4FA2-4E98-8024-BC5B71E0893E,10764,20350,-77,-91
BLE,15:32:34:792230250,F7826DA6-4FA2-4E98-8024-BC5B71E0893E,10764,20350,-77,-91
BLE,15:32:39:921966310,F7826DA6-4FA2-4E98-8024-BC5B71E0893E,10764,20350,-77,-91
BLE,15:32:41:170646599,F7826DA6-4FA2-4E98-8024-BC5B71E0893E,10764,20350,-77,-90
BLE,15:32:42:954169854,F7826DA6-4FA2-4E98-8024-BC5B71E0893E,10764,20350,-77,-91
BLE,15:32:44:030867397,F7826DA6-4FA2-4E98-8024-BC5B71E0893E,10764,20350,-77,-90
BLE,15:32:44:388452846,F7826DA6-4FA2-4E98-8024-BC5B71E0893E,10764,20350,-77,-91
BLE,15:32:45:810165815,F7826DA6-4FA2-4E98-8024-BC5B71E0893E,10764,20350,-77,-91
BLE,15:32:46:170423731,F7826DA6-4FA2-4E98-8024-BC5B71E0893E,10764,20350,-77,-91
BLE,15:32:46:877085633,F7826DA6-4FA2-4E98-8024-BC5B71E0893E,10764,20350,-77,-91
BLE,15:32:47:229444721,F7826DA6-4FA2-4E98-8024-BC5B71E0893E,10764,20350,-77,-90
BLE,15:32:47:587026457,F7826DA6-4FA2-4E98-8024-BC5B71E0893E,10764,20350,-77,-90
BLE,15:32:50:585612994,F7826DA6-4FA2-4E98-8024-BC5B71E0893E,10764,20350,-77,-90
BLE,15:32:51:829941894,F7826DA6-4FA2-4E98-8024-BC5B71E0893E,10764,20350,-77,-91
BLE,15:32:53:602903146,F7826DA6-4FA2-4E98-8024-BC5B71E0893E,10764,20350,-77,-91
BLE,15:32:57:273973155,F7826DA6-4FA2-4E98-8024-BC5B71E0893E,10764,20350,-77,-90
BLE,15:32:58:581571485,F7826DA6-4FA2-4E98-8024-BC5B71E0893E,10764,20350,-77,-90
BLE,15:33:00:993866919,F7826DA6-4FA2-4E98-8024-BC5B71E0893E,10764,20350,-77,-90
BLE,15:33:01:075756347,F7826DA6-4FA2-4E98-8024-BC5B71E0893E,10764,20350,-77,-90
BLE,15:33:02:129927834,F7826DA6-4FA2-4E98-8024-BC5B71E0893E,10764,20350,-77,-92
BLE,15:33:04:597461225,F7826DA6-4FA2-4E98-8024-BC5B71E0893E,10764,20350,-77,-91
BLE,15:33:04:956981349,F7826DA6-4FA2-4E98-8024-BC5B71E0893E,10764,20350,-77,-91
BLE,15:33:06:023832354,F7826DA6-4FA2-4E98-8024-BC5B71E0893E,10764,20350,-77,-91
BLE,15:33:10:169868681,F7826DA6-4FA2-4E98-8024-BC5B71E0893E,10764,20350,-77,-90
BLE,15:33:10:993596403,F7826DA6-4FA2-4E98-8024-BC5B71E0893E,10764,20350,-77,-91
BLE,15:33:11:350430797,F7826DA6-4FA2-4E98-8024-BC5B71E0893E,10764,20350,-77,-91
BLE,15:33:14:385954052,F7826DA6-4FA2-4E98-8024-BC5B71E0893E,10764,20350,-77,-90
BLE,15:33:17:857752326,F7826DA6-4FA2-4E98-8024-BC5B71E0893E,10764,20350,-77,-90
BLE,15:33:18:086634117,F7826DA6-4FA2-4E98-8024-BC5B71E0893E,10764,20350,-77,-91
BLE,15:33:19:149977523,F7826DA6-4FA2-4E98-8024-BC5B71E0893E,10764,20350,-77,-90
BLE,15:33:19:856694244,F7826DA6-4FA2-4E98-8024-BC5B71E0893E,10764,20350,-77,-90
BLE,15:33:22:818692079,F7826DA6-4FA2-4E98-8024-BC5B71E0893E,10764,20350,-77,-91
BLE,15:33:23:399626085,F7826DA6-4FA2-4E98-8024-BC5B71E0893E,10764,20350,-77,-90
BLE,15:33:26:785675080,F7826DA6-4FA2-4E98-8024-BC5B71E0893E,10764,20350,-77,-90
BLE,15:33:28:367594090,F7826DA6-4FA2-4E98-8024-BC5B71E0893E,10764,20350,-77,-90
BLE,15:33:28:721614258,F7826DA6-4FA2-4E98-8024-BC5B71E0893E,10764,20350,-77,-91
BLE,15:33:34:473606827,F7826DA6-4FA2-4E98-8024-BC5B71E0893E,10764,20350,-77,-90
BLE,15:33:34:744278414,F7826DA6-4FA2-4E98-8024-BC5B71E0893E,10764,20350,-77,-90
BLE,15:33:38:441476318,F7826DA6-4FA2-4E98-8024-BC5B71E0893E,10764,20350,-77,-89
BLE,15:33:40:921565329,F7826DA6-4FA2-4E98-8024-BC5B71E0893E,10764,20350,-77,-92
BLE,15:33:46:873768446,F7826DA6-4FA2-4E98-8024-BC5B71E0893E,10764,20350,-77,-91
BLE,15:33:50:097455471,F7826DA6-4FA2-4E98-8024-BC5B71E0893E,10764,20350,-77,-92
BLE,15:33:51:402697899,F7826DA6-4FA2-4E98-8024-BC5B71E0893E,10764,20350,-77,-91
BLE,15:33:58:281432457,F7826DA6-4FA2-4E98-8024-BC5B71E0893E,10764,20350,-77,-90
BLE,15:33:58:505616613,F7826DA6-4FA2-4E98-8024-BC5B71E0893E,10764,20350,-77,-91
BLE,15:34:01:257389216,F7826DA6-4FA2-4E98-8024-BC5B71E0893E,10764,20350,-77,-91
BLE,15:34:01:343983444,F7826DA6-4FA2-4E98-8024-BC5B71E0893E,10764,20350,-77,-91
BLE,15:34:03:120553422,F7826DA6-4FA2-4E98-8024-BC5B71E0893E,10764,20350,-77,-91
BLE,15:34:03:827452401,F7826DA6-4FA2-4E98-8024-BC5B71E0893E,10764,20350,-77,-91
BLE,15:34:04:543116487,F7826DA6-4FA2-4E98-8024-BC5B71E0893E,10764,20350,-77,-91
BLE,15:34:05:953816713,F7826DA6-4FA2-4E98-8024-BC5B71E0893E,10764,20350,-77,-92
BLE,15:34:07:013780399,F7826DA6-4FA2-4E98-8024-BC5B71E0893E,10764,20350,-77,-91
BLE,15:34:10:681927982,F7826DA6-4FA2-4E98-8024-BC5B71E0893E,10764,20350,-77,-90
BLE,15:34:12:673928176,F7826DA6-4FA2-4E98-8024-BC5B71E0893E,10764,20350,-77,-90
BLE,15:34:13:030289746,F7826DA6-4FA2-4E98-8024-BC5B71E0893E,10764,20350,-77,-91
BLE,15:34:14:452646684,F7826DA6-4FA2-4E98-8024-BC5B71E0893E,10764,20350,-77,-91
BLE,15:34:14:811819845,F7826DA6-4FA2-4E98-8024-BC5B71E0893E,10764,20350,-77,-91
BLE,15:34:17:129630204,F7826DA6-4FA2-4E98-8024-BC5B71E0893E,10764,20350,-77,-91
BLE,15:34:19:416481442,F7826DA6-4FA2-4E98-8024-BC5B71E0893E,10764,20350,-77,-90
BLE,15:34:20:835168315,F7826DA6-4FA2-4E98-8024-BC5B71E0893E,10764,20350,-77,-91
BLE,15:34:21:191104398,F7826DA6-4FA2-4E98-8024-BC5B71E0893E,10764,20350,-77,-91
BLE,15:34:21:549003812,F7826DA6-4FA2-4E98-8024-BC5B71E0893E,10764,20350,-77,-90
BLE,15:34:22:607127138,F7826DA6-4FA2-4E98-8024-BC5B71E0893E,10764,20350,-77,-90
BLE,15:34:23:662379815,F7826DA6-4FA2-4E98-8024-BC5B71E0893E,10764,20350,-77,-89
BLE,15:34:27:793461241,F7826DA6-4FA2-4E98-8024-BC5B71E0893E,10764,20350,-77,-90
BLE,15:34:27:937790680,F7826DA6-4FA2-4E98-8024-BC5B71E0893E,10764,20350,-77,-90
BLE,15:34:30:435137948,F7826DA6-4FA2-4E98-8024-BC5B71E0893E,10764,20350,-77,-90
BLE,15:34:33:748502406,F7826DA6-4FA2-4E98-8024-BC5B71E0893E,10764,20350,-77,-91
BLE,15:34:37:218131165,F7826DA6-4FA2-4E98-8024-BC5B71E0893E,10764,20350,-77,-92
BLE,15:34:42:678078617,F7826DA6-4FA2-4E98-8024-BC5B71E0893E,10764,20350,-77,-91
BLE,15:34:43:575288000,F7826DA6-4FA2-4E98-8024-BC5B71E0893E,10764,20350,-77,-90
BLE,15:34:43:929205204,F7826DA6-4FA2-4E98-8024-BC5B71E0893E,10764,20350,-77,-92
BLE,15:34:45:340972327,F7826DA6-4FA2-4E98-8024-BC5B71E0893E,10764,20350,-77,-91
BLE,15:34:46:753799801,F7826DA6-4FA2-4E98-8024-BC5B71E0893E,10764,20350,-77,-92
BLE,15:34:50:361959641,F7826DA6-4FA2-4E98-8024-BC5B71E0893E,10764,20350,-77,-91
BLE,15:34:57:553864607,F7826DA6-4FA2-4E98-8024-BC5B71E0893E,10764,20350,-77,-88
BLE,15:35:03:257711848,F7826DA6-4FA2-4E98-8024-BC5B71E0893E,10764,20350,-77,-91
BLE,15:35:06:481722167,F7826DA6-4FA2-4E98-8024-BC5B71E0893E,10764,20350,-77,-91
BLE,15:35:06:633829226,F7826DA6-4FA2-4E98-8024-BC5B71E0893E,10764,20350,-77,-90
BLE,15:35:07:699039946,F7826DA6-4FA2-4E98-8024-BC5B71E0893E,10764,20350,-77,-91
BLE,15:35:08:403246622,F7826DA6-4FA2-4E98-8024-BC5B71E0893E,10764,20350,-77,-91
BLE,15:35:11:441829258,F7826DA6-4FA2-4E98-8024-BC5B71E0893E,10764,20350,-77,-91
BLE,15:35:13:922229794,F7826DA6-4FA2-4E98-8024-BC5B71E0893E,10764,20350,-77,-92
BLE,15:35:15:142135523,F7826DA6-4FA2-4E98-8024-BC5B71E0893E,10764,20350,-77,-91
BLE,15:35:15:499547312,F7826DA6-4FA2-4E98-8024-BC5B71E0893E,10764,20350,-77,-90
BLE,15:35:16:200630315,F7826DA6-4FA2-4E98-8024-BC5B71E0893E,10764,20350,-77,-91
BLE,15:35:16:555583232,F7826DA6-4FA2-4E98-8024-BC5B71E0893E,10764,20350,-77,-91
BLE,15:35:17:612829573,F7826DA6-4FA2-4E98-8024-BC5B71E0893E,10764,20350,-77,-90
BLE,15:35:17:965934276,F7826DA6-4FA2-4E98-8024-BC5B71E0893E,10764,20350,-77,-90
BLE,15:35:19:032138557,F7826DA6-4FA2-4E98-8024-BC5B71E0893E,10764,20350,-77,-90
BLE,15:35:23:841674743,F7826DA6-4FA2-4E98-8024-BC5B71E0893E,10764,20350,-77,-90
BLE,15:35:25:406099998,F7826DA6-4FA2-4E98-8024-BC5B71E0893E,10764,20350,-77,-92
BLE,15:35:26:828789059,F7826DA6-4FA2-4E98-8024-BC5B71E0893E,10764,20350,-77,-91
BLE,15:35:30:550011832,F7826DA6-4FA2-4E98-8024-BC5B71E0893E,10764,20350,-77,-90
BLE,15:35:31:801923972,F7826DA6-4FA2-4E98-8024-BC5B71E0893E,10764,20350,-77,-90
BLE,15:35:33:208303495,F7826DA6-4FA2-4E98-8024-BC5B71E0893E,10764,20350,-77,-91
BLE,15:35:34:628700750,F7826DA6-4FA2-4E98-8024-BC5B71E0893E,10764,20350,-77,-91
BLE,15:35:37:001738325,F7826DA6-4FA2-4E98-8024-BC5B71E0893E,10764,20350,-77,-91
BLE,15:35:40:457598840,F7826DA6-4FA2-4E98-8024-BC5B71E0893E,10764,20350,-77,-92
BLE,15:35:41:733718558,F7826DA6-4FA2-4E98-8024-BC5B71E0893E,10764,20350,-77,-93
BLE,15:35:52:609825566,F7826DA6-4FA2-4E98-8024-BC5B71E0893E,10764,20350,-77,-92
BLE,15:35:56:089732841,F7826DA6-4FA2-4E98-8024-BC5B71E0893E,10764,20350,-77,-91
BLE,15:35:57:702471021,F7826DA6-4FA2-4E98-8024-BC5B71E0893E,10764,20350,-77,-92
BLE,15:35:58:411458843,F7826DA6-4FA2-4E98-8024-BC5B71E0893E,10764,20350,-77,-91
BLE,15:35:58:768474359,F7826DA6-4FA2-4E98-8024-BC5B71E0893E,10764,20350,-77,-90
BLE,15:35:59:832634680,F7826DA6-4FA2-4E98-8024-BC5B71E0893E,10764,20350,-77,-89
BLE,15:36:03:273180273,F7826DA6-4FA2-4E98-8024-BC5B71E0893E,10764,20350,-77,-91
BLE,15:36:06:749358719,F7826DA6-4FA2-4E98-8024-BC5B71E0893E,10764,20350,-77,-91
BLE,15:36:07:636456254,F7826DA6-4FA2-4E98-8024-BC5B71E0893E,10764,20350,-77,-90
BLE,15:36:07:993353704,F7826DA6-4FA2-4E98-8024-BC5B71E0893E,10764,20350,-77,-91
BLE,15:36:15:921252165,F7826DA6-4FA2-4E98-8024-BC5B71E0893E,10764,20350,-77,-91
BLE,15:36:17:940348649,F7826DA6-4FA2-4E98-8024-BC5B71E0893E,10764,20350,-77,-91
BLE,15:36:25:841589683,F7826DA6-4FA2-4E98-8024-BC5B71E0893E,10764,20350,-77,-92
BLE,15:36:26:805770452,F7826DA6-4FA2-4E98-8024-BC5B71E0893E,10764,20350,-77,-91
BLE,15:36:28:236566771,F7826DA6-4FA2-4E98-8024-BC5B71E0893E,10764,20350,-77,-91
BLE,15:36:30:019235292,F7826DA6-4FA2-4E98-8024-BC5B71E0893E,10764,20350,-77,-92
BLE,15:36:32:147150457,F7826DA6-4FA2-4E98-8024-BC5B71E0893E,10764,20350,-77,-92
BLE,15:36:35:761544917,F7826DA6-4FA2-4E98-8024-BC5B71E0893E,10764,20350,-77,-92
BLE,15:36:36:778521468,F7826DA6-4FA2-4E98-8024-BC5B71E0893E,10764,20350,-77,-92
BLE,15:36:38:566248595,F7826DA6-4FA2-4E98-8024-BC5B71E0893E,10764,20350,-77,-90
BLE,15:36:38:919364203,F7826DA6-4FA2-4E98-8024-BC5B71E0893E,10764,20350,-77,-92
BLE,15:36:42:706101704,F7826DA6-4FA2-4E98-8024-BC5B71E0893E,10764,20350,-77,-90
BLE,15:36:44:590159203,F7826DA6-4FA2-4E98-8024-BC5B71E0893E,10764,20350,-77,-91
BLE,15:36:46:007357288,F7826DA6-4FA2-4E98-8024-BC5B71E0893E,10764,20350,-77,-92
BLE,15:36:48:906400840,F7826DA6-4FA2-4E98-8024-BC5B71E0893E,10764,20350,-77,-91
BLE,15:36:50:252592535,F7826DA6-4FA2-4E98-8024-BC5B71E0893E,10764,20350,-77,-91
BLE,15:36:51:310862553,F7826DA6-4FA2-4E98-8024-BC5B71E0893E,10764,20350,-77,-90
BLE,15:36:51:665813790,F7826DA6-4FA2-4E98-8024-BC5B71E0893E,10764,20350,-77,-90
BLE,15:36:51:681726481,F7826DA6-4FA2-4E98-8024-BC5B71E0893E,10764,20350,-77,-91
BLE,15:36:53:091172204,F7826DA6-4FA2-4E98-8024-BC5B71E0893E,10764,20350,-77,-90
BLE,15:36:55:586884595,F7826DA6-4FA2-4E98-8024-BC5B71E0893E,10764,20350,-77,-90
BLE,15:36:57:002918949,F7826DA6-4FA2-4E98-8024-BC5B71E0893E,10764,20350,-77,-89
BLE,15:36:58:777356556,F7826DA6-4FA2-4E98-8024-BC5B71E0893E,10764,20350,-77,-90
BLE,15:37:02:793960512,F7826DA6-4FA2-4E98-8024-BC5B71E0893E,10764,20350,-77,-90
BLE,15:37:04:114895664,F7826DA6-4FA2-4E98-8024-BC5B71E0893E,10764,20350,-77,-90
BLE,15:37:04:466069133,F7826DA6-4FA2-4E98-8024-BC5B71E0893E,10764,20350,-77,-91
BLE,15:37:07:009917683,F7826DA6-4FA2-4E98-8024-BC5B71E0893E,10764,20350,-77,-90
BLE,15:37:08:716953769,F7826DA6-4FA2-4E98-8024-BC5B71E0893E,10764,20350,-77,-91
BLE,15:37:09:787122356,F7826DA6-4FA2-4E98-8024-BC5B71E0893E,10764,20350,-77,-90
BLE,15:37:12:465811884,F7826DA6-4FA2-4E98-8024-BC5B71E0893E,10764,20350,-77,-88
BLE,15:37:13:689928158,F7826DA6-4FA2-4E98-8024-BC5B71E0893E,10764,20350,-77,-91
BLE,15:37:14:042902665,F7826DA6-4FA2-4E98-8024-BC5B71E0893E,10764,20350,-77,-92
BLE,15:37:17:673679046,F7826DA6-4FA2-4E98-8024-BC5B71E0893E,10764,20350,-77,-90
BLE,15:37:19:376993258,F7826DA6-4FA2-4E98-8024-BC5B71E0893E,10764,20350,-77,-91
BLE,15:37:21:146302950,F7826DA6-4FA2-4E98-8024-BC5B71E0893E,10764,20350,-77,-92
BLE,15:37:24:370300109,F7826DA6-4FA2-4E98-8024-BC5B71E0893E,10764,20350,-77,-91
BLE,15:37:24:678822681,F7826DA6-4FA2-4E98-8024-BC5B71E0893E,10764,20350,-77,-91
BLE,15:37:25:037850526,F7826DA6-4FA2-4E98-8024-BC5B71E0893E,10764,20350,-77,-91
BLE,15:37:26:460191370,F7826DA6-4FA2-4E98-8024-BC5B71E0893E,10764,20350,-77,-91
BLE,15:37:26:816581358,F7826DA6-4FA2-4E98-8024-BC5B71E0893E,10764,20350,-77,-92
BLE,15:37:28:229137391,F7826DA6-4FA2-4E98-8024-BC5B71E0893E,10764,20350,-77,-91
BLE,15:37:29:295718169,F7826DA6-4FA2-4E98-8024-BC5B71E0893E,10764,20350,-77,-91
BLE,15:37:30:010732346,F7826DA6-4FA2-4E98-8024-BC5B71E0893E,10764,20350,-77,-90
BLE,15:37:31:791876127,F7826DA6-4FA2-4E98-8024-BC5B71E0893E,10764,20350,-77,-91
BLE,15:37:32:503127869,F7826DA6-4FA2-4E98-8024-BC5B71E0893E,10764,20350,-77,-91
BLE,15:37:33:564735626,F7826DA6-4FA2-4E98-8024-BC5B71E0893E,10764,20350,-77,-91
BLE,15:37:35:333328659,F7826DA6-4FA2-4E98-8024-BC5B71E0893E,10764,20350,-77,-91
BLE,15:37:37:115619021,F7826DA6-4FA2-4E98-8024-BC5B71E0893E,10764,20350,-77,-91
BLE,15:37:38:531556302,F7826DA6-4FA2-4E98-8024-BC5B71E0893E,10764,20350,-77,-91
BLE,15:37:38:889760134,F7826DA6-4FA2-4E98-8024-BC5B71E0893E,10764,20350,-77,-91
BLE,15:37:40:306079062,F7826DA6-4FA2-4E98-8024-BC5B71E0893E,10764,20350,-77,-92
BLE,15:37:45:449486974,F7826DA6-4FA2-4E98-8024-BC5B71E0893E,10764,20350,-77,-90
BLE,15:37:45:636843588,F7826DA6-4FA2-4E98-8024-BC5B71E0893E,10764,20350,-77,-91
BLE,15:37:47:941796184,F7826DA6-4FA2-4E98-8024-BC5B71E0893E,10764,20350,-77,-90
BLE,15:37:49:557835556,F7826DA6-4FA2-4E98-8024-BC5B71E0893E,10764,20350,-77,-90
BLE,15:37:49:915780558,F7826DA6-4FA2-4E98-8024-BC5B71E0893E,10764,20350,-77,-90
BLE,15:37:51:332671374,F7826DA6-4FA2-4E98-8024-BC5B71E0893E,10764,20350,-77,-90
BLE,15:37:52:743606345,F7826DA6-4FA2-4E98-8024-BC5B71E0893E,10764,20350,-77,-90
BLE,15:37:55:387200608,F7826DA6-4FA2-4E98-8024-BC5B71E0893E,10764,20350,-77,-90
BLE,15:37:56:632391507,F7826DA6-4FA2-4E98-8024-BC5B71E0893E,10764,20350,-77,-90
BLE,15:37:58:841655238,F7826DA6-4FA2-4E98-8024-BC5B71E0893E,10764,20350,-77,-91
BLE,15:37:59:122061135,F7826DA6-4FA2-4E98-8024-BC5B71E0893E,10764,20350,-77,-91
BLE,15:38:00:542428228,F7826DA6-4FA2-4E98-8024-BC5B71E0893E,10764,20350,-77,-92
BLE,15:38:05:289681089,F7826DA6-4FA2-4E98-8024-BC5B71E0893E,10764,20350,-77,-91
BLE,15:38:08:517353918,F7826DA6-4FA2-4E98-8024-BC5B71E0893E,10764,20350,-77,-90
BLE,15:38:08:705297434,F7826DA6-4FA2-4E98-8024-BC5B71E0893E,10764,20350,-77,-90
BLE,15:38:08:720766699,F7826DA6-4FA2-4E98-8024-BC5B71E0893E,10764,20350,-77,-90
BLE,15:38:10:128679289,F7826DA6-4FA2-4E98-8024-BC5B71E0893E,10764,20350,-77,-90
BLE,15:38:12:602265469,F7826DA6-4FA2-4E98-8024-BC5B71E0893E,10764,20350,-77,-91
BLE,15:38:12:962372508,F7826DA6-4FA2-4E98-8024-BC5B71E0893E,10764,20350,-77,-92
BLE,15:38:13:317494088,F7826DA6-4FA2-4E98-8024-BC5B71E0893E,10764,20350,-77,-90
BLE,15:38:15:089514991,F7826DA6-4FA2-4E98-8024-BC5B71E0893E,10764,20350,-77,-91
BLE,15:38:19:441932699,F7826DA6-4FA2-4E98-8024-BC5B71E0893E,10764,20350,-77,-90
BLE,15:38:20:764022502,F7826DA6-4FA2-4E98-8024-BC5B71E0893E,10764,20350,-77,-90
BLE,15:38:21:118521506,F7826DA6-4FA2-4E98-8024-BC5B71E0893E,10764,20350,-77,-91
BLE,15:38:24:893181278,F7826DA6-4FA2-4E98-8024-BC5B71E0893E,10764,20350,-77,-91
BLE,15:38:25:374810198,F7826DA6-4FA2-4E98-8024-BC5B71E0893E,10764,20350,-77,-91
BLE,15:38:28:369492301,F7826DA6-4FA2-4E98-8024-BC5B71E0893E,10764,20350,-77,-90
BLE,15:38:29:614178661,F7826DA6-4FA2-4E98-8024-BC5B71E0893E,10764,20350,-77,-90
BLE,15:38:31:047253062,F7826DA6-4FA2-4E98-8024-BC5B71E0893E,10764,20350,-77,-91
BLE,15:38:31:754061326,F7826DA6-4FA2-4E98-8024-BC5B71E0893E,10764,20350,-77,-91
BLE,15:38:32:811546124,F7826DA6-4FA2-4E98-8024-BC5B71E0893E,10764,20350,-77,-90
BLE,15:38:35:049520588,F7826DA6-4FA2-4E98-8024-BC5B71E0893E,10764,20350,-77,-90
BLE,15:38:35:998011276,F7826DA6-4FA2-4E98-8024-BC5B71E0893E,10764,20350,-77,-90
BLE,15:38:36:356364577,F7826DA6-4FA2-4E98-8024-BC5B71E0893E,10764,20350,-77,-91
BLE,15:38:37:767909559,F7826DA6-4FA2-4E98-8024-BC5B71E0893E,10764,20350,-77,-90
BLE,15:38:41:249243032,F7826DA6-4FA2-4E98-8024-BC5B71E0893E,10764,20350,-77,-91
BLE,15:38:43:976716570,F7826DA6-4FA2-4E98-8024-BC5B71E0893E,10764,20350,-77,-89
BLE,15:38:45:212723698,F7826DA6-4FA2-4E98-8024-BC5B71E0893E,10764,20350,-77,-90
BLE,15:38:48:445588713,F7826DA6-4FA2-4E98-8024-BC5B71E0893E,10764,20350,-77,-90
BLE,15:38:48:759056905,F7826DA6-4FA2-4E98-8024-BC5B71E0893E,10764,20350,-77,-90
BLE,15:38:50:171973600,F7826DA6-4FA2-4E98-8024-BC5B71E0893E,10764,20350,-77,-90
BLE,15:38:50:878815381,F7826DA6-4FA2-4E98-8024-BC5B71E0893E,10764,20350,-77,-89
BLE,15:38:53:013443825,F7826DA6-4FA2-4E98-8024-BC5B71E0893E,10764,20350,-77,-89
BLE,15:38:54:429450369,F7826DA6-4FA2-4E98-8024-BC5B71E0893E,10764,20350,-77,-89
BLE,15:38:57:134525489,F7826DA6-4FA2-4E98-8024-BC5B71E0893E,10764,20350,-77,-90
BLE,15:38:57:249703723,F7826DA6-4FA2-4E98-8024-BC5B71E0893E,10764,20350,-77,-90
BLE,15:38:58:311701274,F7826DA6-4FA2-4E98-8024-BC5B71E0893E,10764,20350,-77,-90
BLE,15:39:00:448145121,F7826DA6-4FA2-4E98-8024-BC5B71E0893E,10764,20350,-77,-90
BLE,15:39:01:507069028,F7826DA6-4FA2-4E98-8024-BC5B71E0893E,10764,20350,-77,-91
BLE,15:39:01:860112750,F7826DA6-4FA2-4E98-8024-BC5B71E0893E,10764,20350,-77,-90
BLE,15:39:04:811302706,F7826DA6-4FA2-4E98-8024-BC5B71E0893E,10764,20350,-77,-91
BLE,15:39:07:049951215,F7826DA6-4FA2-4E98-8024-BC5B71E0893E,10764,20350,-77,-91
BLE,15:39:08:218200466,F7826DA6-4FA2-4E98-8024-BC5B71E0893E,10764,20350,-77,-91
BLE,15:39:08:921748136,F7826DA6-4FA2-4E98-8024-BC5B71E0893E,10764,20350,-77,-91
BLE,15:39:11:415984301,F7826DA6-4FA2-4E98-8024-BC5B71E0893E,10764,20350,-77,-91
BLE,15:39:12:834233352,F7826DA6-4FA2-4E98-8024-BC5B71E0893E,10764,20350,-77,-91
BLE,15:39:13:536940764,F7826DA6-4FA2-4E98-8024-BC5B71E0893E,10764,20350,-77,-90
BLE,15:39:13:888296032,F7826DA6-4FA2-4E98-8024-BC5B71E0893E,10764,20350,-77,-91
BLE,15:39:14:958046643,F7826DA6-4FA2-4E98-8024-BC5B71E0893E,10764,20350,-77,-89
BLE,15:39:17:082982587,F7826DA6-4FA2-4E98-8024-BC5B71E0893E,10764,20350,-77,-91
BLE,15:39:17:436129425,F7826DA6-4FA2-4E98-8024-BC5B71E0893E,10764,20350,-77,-90
BLE,15:39:20:433936491,F7826DA6-4FA2-4E98-8024-BC5B71E0893E,10764,20350,-77,-91
BLE,15:39:21:686195596,F7826DA6-4FA2-4E98-8024-BC5B71E0893E,10764,20350,-77,-91
BLE,15:39:23:462813843,F7826DA6-4FA2-4E98-8024-BC5B71E0893E,10764,20350,-77,-91
BLE,15:39:24:515870291,F7826DA6-4FA2-4E98-8024-BC5B71E0893E,10764,20350,-77,-89
BLE,15:39:26:883602470,F7826DA6-4FA2-4E98-8024-BC5B71E0893E,10764,20350,-77,-90
BLE,15:39:28:428366287,F7826DA6-4FA2-4E98-8024-BC5B71E0893E,10764,20350,-77,-90
BLE,15:39:29:491331111,F7826DA6-4FA2-4E98-8024-BC5B71E0893E,10764,20350,-77,-91
BLE,15:39:31:622557882,F7826DA6-4FA2-4E98-8024-BC5B71E0893E,10764,20350,-77,-91
BLE,15:39:33:402175231,F7826DA6-4FA2-4E98-8024-BC5B71E0893E,10764,20350,-77,-92
BLE,15:39:36:305825132,F7826DA6-4FA2-4E98-8024-BC5B71E0893E,10764,20350,-77,-91
BLE,15:39:36:587744749,F7826DA6-4FA2-4E98-8024-BC5B71E0893E,10764,20350,-77,-92
BLE,15:39:40:025992457,F7826DA6-4FA2-4E98-8024-BC5B71E0893E,10764,20350,-77,-91
BLE,15:39:40:150847853,F7826DA6-4FA2-4E98-8024-BC5B71E0893E,10764,20350,-77,-91
BLE,15:39:40:505772170,F7826DA6-4FA2-4E98-8024-BC5B71E0893E,10764,20350,-77,-92
BLE,15:39:41:928979415,F7826DA6-4FA2-4E98-8024-BC5B71E0893E,10764,20350,-77,-91
BLE,15:39:42:282672923,F7826DA6-4FA2-4E98-8024-BC5B71E0893E,10764,20350,-77,-90
BLE,15:39:43:341590549,F7826DA6-4FA2-4E98-8024-BC5B71E0893E,10764,20350,-77,-90
BLE,15:39:44:051182301,F7826DA6-4FA2-4E98-8024-BC5B71E0893E,10764,20350,-77,-91
BLE,15:39:44:405961167,F7826DA6-4FA2-4E98-8024-BC5B71E0893E,10764,20350,-77,-90
BLE,15:39:46:969512969,F7826DA6-4FA2-4E98-8024-BC5B71E0893E,10764,20350,-77,-89
BLE,15:39:48:666731244,F7826DA6-4FA2-4E98-8024-BC5B71E0893E,10764,20350,-77,-90
BLE,15:39:51:185620180,F7826DA6-4FA2-4E98-8024-BC5B71E0893E,10764,20350,-77,-91
BLE,15:39:52:204482799,F7826DA6-4FA2-4E98-8024-BC5B71E0893E,10764,20350,-77,-90
BLE,15:39:52:560585167,F7826DA6-4FA2-4E98-8024-BC5B71E0893E,10764,20350,-77,-90
BLE,15:39:52:919592280,F7826DA6-4FA2-4E98-8024-BC5B71E0893E,10764,20350,-77,-90
BLE,15:39:53:277292247,F7826DA6-4FA2-4E98-8024-BC5B71E0893E,10764,20350,-77,-89
BLE,15:39:54:696774999,F7826DA6-4FA2-4E98-8024-BC5B71E0893E,10764,20350,-77,-90
BLE,15:39:56:470616209,F7826DA6-4FA2-4E98-8024-BC5B71E0893E,10764,20350,-77,-91
BLE,15:39:57:178245761,F7826DA6-4FA2-4E98-8024-BC5B71E0893E,10764,20350,-77,-90
BLE,15:39:57:531524715,F7826DA6-4FA2-4E98-8024-BC5B71E0893E,10764,20350,-77,-90
BLE,15:39:59:296537465,F7826DA6-4FA2-4E98-8024-BC5B71E0893E,10764,20350,-77,-91
BLE,15:40:01:068366966,F7826DA6-4FA2-4E98-8024-BC5B71E0893E,10764,20350,-77,-90
BLE,15:40:03:546485800,F7826DA6-4FA2-4E98-8024-BC5B71E0893E,10764,20350,-77,-89
BLE,15:40:05:315915629,F7826DA6-4FA2-4E98-8024-BC5B71E0893E,10764,20350,-77,-90
BLE,15:40:08:049659952,F7826DA6-4FA2-4E98-8024-BC5B71E0893E,10764,20350,-77,-90
BLE,15:40:08:148847871,F7826DA6-4FA2-4E98-8024-BC5B71E0893E,10764,20350,-77,-90
BLE,15:40:09:206258884,F7826DA6-4FA2-4E98-8024-BC5B71E0893E,10764,20350,-77,-90
BLE,15:40:12:513761849,F7826DA6-4FA2-4E98-8024-BC5B71E0893E,10764,20350,-77,-92
BLE,15:40:13:461703747,F7826DA6-4FA2-4E98-8024-BC5B71E0893E,10764,20350,-77,-91
BLE,15:40:14:527472869,F7826DA6-4FA2-4E98-8024-BC5B71E0893E,10764,20350,-77,-92
BLE,15:40:15:593575174,F7826DA6-4FA2-4E98-8024-BC5B71E0893E,10764,20350,-77,-89
BLE,15:40:18:229826677,F7826DA6-4FA2-4E98-8024-BC5B71E0893E,10764,20350,-77,-89
BLE,15:40:20:557739593,F7826DA6-4FA2-4E98-8024-BC5B71E0893E,10764,20350,-77,-89
BLE,15:40:21:976454958,F7826DA6-4FA2-4E98-8024-BC5B71E0893E,10764,20350,-77,-90
BLE,15:40:23:395550152,F7826DA6-4FA2-4E98-8024-BC5B71E0893E,10764,20350,-77,-92
BLE,15:40:24:811828484,F7826DA6-4FA2-4E98-8024-BC5B71E0893E,10764,20350,-77,-92
BLE,15:40:26:233163767,F7826DA6-4FA2-4E98-8024-BC5B71E0893E,10764,20350,-77,-92
BLE,15:40:26:586255704,F7826DA6-4FA2-4E98-8024-BC5B71E0893E,10764,20350,-77,-91
BLE,15:40:28:008251899,F7826DA6-4FA2-4E98-8024-BC5B71E0893E,10764,20350,-77,-91
BLE,15:40:28:366338589,F7826DA6-4FA2-4E98-8024-BC5B71E0893E,10764,20350,-77,-90
BLE,15:40:29:777181191,F7826DA6-4FA2-4E98-8024-BC5B71E0893E,10764,20350,-77,-90
BLE,15:40:33:841435322,F7826DA6-4FA2-4E98-8024-BC5B71E0893E,10764,20350,-77,-90
BLE,15:40:34:031133235,F7826DA6-4FA2-4E98-8024-BC5B71E0893E,10764,20350,-77,-91
BLE,15:40:34:385672390,F7826DA6-4FA2-4E98-8024-BC5B71E0893E,10764,20350,-77,-90
BLE,15:40:35:808551176,F7826DA6-4FA2-4E98-8024-BC5B71E0893E,10764,20350,-77,-90
BLE,15:40:43:018065987,F7826DA6-4FA2-4E98-8024-BC5B71E0893E,10764,20350,-77,-91
BLE,15:40:44:328022536,F7826DA6-4FA2-4E98-8024-BC5B71E0893E,10764,20350,-77,-90
BLE,15:40:45:755287222,F7826DA6-4FA2-4E98-8024-BC5B71E0893E,10764,20350,-77,-90
BLE,15:40:46:110583180,F7826DA6-4FA2-4E98-8024-BC5B71E0893E,10764,20350,-77,-91
BLE,15:40:47:879330404,F7826DA6-4FA2-4E98-8024-BC5B71E0893E,10764,20350,-77,-90
BLE,15:40:53:433222836,F7826DA6-4FA2-4E98-8024-BC5B71E0893E,10764,20350,-77,-90
BLE,15:40:53:555011479,F7826DA6-4FA2-4E98-8024-BC5B71E0893E,10764,20350,-77,-88
BLE,15:40:53:910384565,F7826DA6-4FA2-4E98-8024-BC5B71E0893E,10764,20350,-77,-89
BLE,15:40:56:657250677,F7826DA6-4FA2-4E98-8024-BC5B71E0893E,10764,20350,-77,-90
BLE,15:40:58:182254704,F7826DA6-4FA2-4E98-8024-BC5B71E0893E,10764,20350,-77,-89
BLE,15:40:58:536067008,F7826DA6-4FA2-4E98-8024-BC5B71E0893E,10764,20350,-77,-90
BLE,15:41:00:886178887,F7826DA6-4FA2-4E98-8024-BC5B71E0893E,10764,20350,-77,-91
BLE,15:41:01:712252618,F7826DA6-4FA2-4E98-8024-BC5B71E0893E,10764,20350,-77,-92
BLE,15:41:02:425408849,F7826DA6-4FA2-4E98-8024-BC5B71E0893E,10764,20350,-77,-90
BLE,15:41:05:337051123,F7826DA6-4FA2-4E98-8024-BC5B71E0893E,10764,20350,-77,-90
BLE,15:41:05:966139655,F7826DA6-4FA2-4E98-8024-BC5B71E0893E,10764,20350,-77,-90
BLE,15:41:07:733602481,F7826DA6-4FA2-4E98-8024-BC5B71E0893E,10764,20350,-77,-91
BLE,15:41:11:042301331,F7826DA6-4FA2-4E98-8024-BC5B71E0893E,10764,20350,-77,-89
BLE,15:41:14:513785285,F7826DA6-4FA2-4E98-8024-BC5B71E0893E,10764,20350,-77,-90
BLE,15:41:15:530712032,F7826DA6-4FA2-4E98-8024-BC5B71E0893E,10764,20350,-77,-90
BLE,15:41:17:314342445,F7826DA6-4FA2-4E98-8024-BC5B71E0893E,10764,20350,-77,-91
BLE,15:41:17:669943443,F7826DA6-4FA2-4E98-8024-BC5B71E0893E,10764,20350,-77,-90
BLE,15:41:19:443164975,F7826DA6-4FA2-4E98-8024-BC5B71E0893E,10764,20350,-77,-89
BLE,15:41:21:215926465,F7826DA6-4FA2-4E98-8024-BC5B71E0893E,10764,20350,-77,-90
BLE,15:41:21:570988428,F7826DA6-4FA2-4E98-8024-BC5B71E0893E,10764,20350,-77,-90
BLE,15:41:25:178298122,F7826DA6-4FA2-4E98-8024-BC5B71E0893E,10764,20350,-77,-90
BLE,15:41:26:552226298,F7826DA6-4FA2-4E98-8024-BC5B71E0893E,10764,20350,-77,-91
BLE,15:41:26:907957762,F7826DA6-4FA2-4E98-8024-BC5B71E0893E,10764,20350,-77,-90
BLE,15:41:29:045087807,F7826DA6-4FA2-4E98-8024-BC5B71E0893E,10764,20350,-77,-90
BLE,15:41:29:748322059,F7826DA6-4FA2-4E98-8024-BC5B71E0893E,10764,20350,-77,-91
BLE,15:41:34:849650870,F7826DA6-4FA2-4E98-8024-BC5B71E0893E,10764,20350,-77,-91
BLE,15:41:36:134064922,F7826DA6-4FA2-4E98-8024-BC5B71E0893E,10764,20350,-77,-91
BLE,15:41:36:487807019,F7826DA6-4FA2-4E98-8024-BC5B71E0893E,10764,20350,-77,-90
BLE,15:41:38:266579195,F7826DA6-4FA2-4E98-8024-BC5B71E0893E,10764,20350,-77,-90
BLE,15:41:39:692079388,F7826DA6-4FA2-4E98-8024-BC5B71E0893E,10764,20350,-77,-89
BLE,15:41:40:766926319,F7826DA6-4FA2-4E98-8024-BC5B71E0893E,10764,20350,-77,-90
BLE,15:41:41:123572604,F7826DA6-4FA2-4E98-8024-BC5B71E0893E,10764,20350,-77,-90
BLE,15:41:42:907868610,F7826DA6-4FA2-4E98-8024-BC5B71E0893E,10764,20350,-77,-89
BLE,15:41:43:266977545,F7826DA6-4FA2-4E98-8024-BC5B71E0893E,10764,20350,-77,-90
BLE,15:41:43:624846508,F7826DA6-4FA2-4E98-8024-BC5B71E0893E,10764,20350,-77,-90
BLE,15:41:43:974868798,F7826DA6-4FA2-4E98-8024-BC5B71E0893E,10764,20350,-77,-90
BLE,15:41:48:985785964,F7826DA6-4FA2-4E98-8024-BC5B71E0893E,10764,20350,-77,-90
BLE,15:41:49:002403860,F7826DA6-4FA2-4E98-8024-BC5B71E0893E,10764,20350,-77,-90
BLE,15:41:49:282103830,F7826DA6-4FA2-4E98-8024-BC5B71E0893E,10764,20350,-77,-91
BLE,15:41:50:714593865,F7826DA6-4FA2-4E98-8024-BC5B71E0893E,10764,20350,-77,-90
BLE,15:41:51:066398491,F7826DA6-4FA2-4E98-8024-BC5B71E0893E,10764,20350,-77,-91
BLE,15:41:53:543811930,F7826DA6-4FA2-4E98-8024-BC5B71E0893E,10764,20350,-77,-91
BLE,15:41:53:895597837,F7826DA6-4FA2-4E98-8024-BC5B71E0893E,10764,20350,-77,-91
BLE,15:41:54:255482638,F7826DA6-4FA2-4E98-8024-BC5B71E0893E,10764,20350,-77,-90
BLE,15:41:55:318234207,F7826DA6-4FA2-4E98-8024-BC5B71E0893E,10764,20350,-77,-90
BLE,15:41:55:676050189,F7826DA6-4FA2-4E98-8024-BC5B71E0893E,10764,20350,-77,-90
BLE,15:41:57:447819219,F7826DA6-4FA2-4E98-8024-BC5B71E0893E,10764,20350,-77,-90
BLE,15:41:58:869825935,F7826DA6-4FA2-4E98-8024-BC5B71E0893E,10764,20350,-77,-90
BLE,15:42:00:288643209,F7826DA6-4FA2-4E98-8024-BC5B71E0893E,10764,20350,-77,-90
BLE,15:42:01:700663393,F7826DA6-4FA2-4E98-8024-BC5B71E0893E,10764,20350,-77,-90
BLE,15:42:02:059556397,F7826DA6-4FA2-4E98-8024-BC5B71E0893E,10764,20350,-77,-90
BLE,15:42:03:121866588,F7826DA6-4FA2-4E98-8024-BC5B71E0893E,10764,20350,-77,-91
BLE,15:42:03:830733648,F7826DA6-4FA2-4E98-8024-BC5B71E0893E,10764,20350,-77,-92
BLE,15:42:04:891599030,F7826DA6-4FA2-4E98-8024-BC5B71E0893E,10764,20350,-77,-91
BLE,15:42:06:668066397,F7826DA6-4FA2-4E98-8024-BC5B71E0893E,10764,20350,-77,-92
BLE,15:42:10:810190601,F7826DA6-4FA2-4E98-8024-BC5B71E0893E,10764,20350,-77,-92
BLE,15:42:10:916689752,F7826DA6-4FA2-4E98-8024-BC5B71E0893E,10764,20350,-77,-91
BLE,15:42:15:769607503,F7826DA6-4FA2-4E98-8024-BC5B71E0893E,10764,20350,-77,-90
BLE,15:42:20:730180082,F7826DA6-4FA2-4E98-8024-BC5B71E0893E,10764,20350,-77,-92
BLE,15:42:21:545778256,F7826DA6-4FA2-4E98-8024-BC5B71E0893E,10764,20350,-77,-91
BLE,15:42:22:956608316,F7826DA6-4FA2-4E98-8024-BC5B71E0893E,10764,20350,-77,-91
BLE,15:42:24:022460236,F7826DA6-4FA2-4E98-8024-BC5B71E0893E,10764,20350,-77,-92
BLE,15:42:25:792524931,F7826DA6-4FA2-4E98-8024-BC5B71E0893E,10764,20350,-77,-90
BLE,15:42:30:153559544,F7826DA6-4FA2-4E98-8024-BC5B71E0893E,10764,20350,-77,-89
BLE,15:42:31:462604904,F7826DA6-4FA2-4E98-8024-BC5B71E0893E,10764,20350,-77,-91
BLE,15:42:34:369939930,F7826DA6-4FA2-4E98-8024-BC5B71E0893E,10764,20350,-77,-91
BLE,15:42:37:593503045,F7826DA6-4FA2-4E98-8024-BC5B71E0893E,10764,20350,-77,-91
BLE,15:42:45:542439669,F7826DA6-4FA2-4E98-8024-BC5B71E0893E,10764,20350,-77,-91
BLE,15:42:45:666821379,F7826DA6-4FA2-4E98-8024-BC5B71E0893E,10764,20350,-77,-91
BLE,15:42:46:015693899,F7826DA6-4FA2-4E98-8024-BC5B71E0893E,10764,20350,-77,-92
BLE,15:42:47:776761459,F7826DA6-4FA2-4E98-8024-BC5B71E0893E,10764,20350,-77,-90
BLE,15:42:57:435037825,F7826DA6-4FA2-4E98-8024-BC5B71E0893E,10764,20350,-77,-91
BLE,15:42:58:064714688,F7826DA6-4FA2-4E98-8024-BC5B71E0893E,10764,20350,-77,-91
BLE,15:43:03:138289233,F7826DA6-4FA2-4E98-8024-BC5B71E0893E,10764,20350,-77,-91
BLE,15:43:08:840820651,F7826DA6-4FA2-4E98-8024-BC5B71E0893E,10764,20350,-77,-92
BLE,15:43:13:066613271,F7826DA6-4FA2-4E98-8024-BC5B71E0893E,10764,20350,-77,-90
BLE,15:43:13:319761052,F7826DA6-4FA2-4E98-8024-BC5B71E0893E,10764,20350,-77,-91
BLE,15:43:19:257801473,F7826DA6-4FA2-4E98-8024-BC5B71E0893E,10764,20350,-77,-91
BLE,15:43:21:986609640,F7826DA6-4FA2-4E98-8024-BC5B71E0893E,10764,20350,-77,-92
BLE,15:43:23:250213906,F7826DA6-4FA2-4E98-8024-BC5B71E0893E,10764,20350,-77,-92
BLE,15:43:25:372715583,F7826DA6-4FA2-4E98-8024-BC5B71E0893E,10764,20350,-77,-90
BLE,15:43:28:438411044,F7826DA6-4FA2-4E98-8024-BC5B71E0893E,10764,20350,-77,-92
BLE,15:43:31:657896995,F7826DA6-4FA2-4E98-8024-BC5B71E0893E,10764,20350,-77,-92
BLE,15:43:31:746275609,F7826DA6-4FA2-4E98-8024-BC5B71E0893E,10764,20350,-77,-91
BLE,15:43:34:138142079,F7826DA6-4FA2-4E98-8024-BC5B71E0893E,10764,20350,-77,-91
BLE,15:43:37:609749639,F7826DA6-4FA2-4E98-8024-BC5B71E0893E,10764,20350,-77,-91
BLE,15:43:37:780686310,F7826DA6-4FA2-4E98-8024-BC5B71E0893E,10764,20350,-77,-90
BLE,15:43:38:140517557,F7826DA6-4FA2-4E98-8024-BC5B71E0893E,10764,20350,-77,-92
BLE,15:43:39:907002256,F7826DA6-4FA2-4E98-8024-BC5B71E0893E,10764,20350,-77,-90
BLE,15:43:40:610248481,F7826DA6-4FA2-4E98-8024-BC5B71E0893E,10764,20350,-77,-91
BLE,15:43:44:305851318,F7826DA6-4FA2-4E98-8024-BC5B71E0893E,10764,20350,-77,-92
BLE,15:43:49:762303054,F7826DA6-4FA2-4E98-8024-BC5B71E0893E,10764,20350,-77,-90
BLE,15:43:53:977801428,F7826DA6-4FA2-4E98-8024-BC5B71E0893E,10764,20350,-77,-91
BLE,15:43:56:571439239,F7826DA6-4FA2-4E98-8024-BC5B71E0893E,10764,20350,-77,-92
BLE,15:44:00:925772407,F7826DA6-4FA2-4E98-8024-BC5B71E0893E,10764,20350,-77,-91
BLE,15:44:06:626461326,F7826DA6-4FA2-4E98-8024-BC5B71E0893E,10764,20350,-77,-91
BLE,15:44:07:916896554,F7826DA6-4FA2-4E98-8024-BC5B71E0893E,10764,20350,-77,-91
BLE,15:44:09:337823942,F7826DA6-4FA2-4E98-8024-BC5B71E0893E,10764,20350,-77,-91
BLE,15:44:14:561743784,F7826DA6-4FA2-4E98-8024-BC5B71E0893E,10764,20350,-77,-92
BLE,15:44:22:001654500,F7826DA6-4FA2-4E98-8024-BC5B71E0893E,10764,20350,-77,-90
BLE,15:44:24:603788479,F7826DA6-4FA2-4E98-8024-BC5B71E0893E,10764,20350,-77,-91
BLE,15:44:26:020749833,F7826DA6-4FA2-4E98-8024-BC5B71E0893E,10764,20350,-77,-91
BLE,15:44:26:734476297,F7826DA6-4FA2-4E98-8024-BC5B71E0893E,10764,20350,-77,-91
BLE,15:44:28:162626906,F7826DA6-4FA2-4E98-8024-BC5B71E0893E,10764,20350,-77,-90
BLE,15:44:41:097900227,F7826DA6-4FA2-4E98-8024-BC5B71E0893E,10764,20350,-77,-91
BLE,15:44:41:989828405,F7826DA6-4FA2-4E98-8024-BC5B71E0893E,10764,20350,-77,-91
BLE,15:44:43:064823317,F7826DA6-4FA2-4E98-8024-BC5B71E0893E,10764,20350,-77,-91
BLE,15:44:46:801261342,F7826DA6-4FA2-4E98-8024-BC5B71E0893E,10764,20350,-77,-92
BLE,15:44:50:773598932,F7826DA6-4FA2-4E98-8024-BC5B71E0893E,10764,20350,-77,-91
BLE,15:44:50:895159008,F7826DA6-4FA2-4E98-8024-BC5B71E0893E,10764,20350,-77,-91
BLE,15:44:52:678573398,F7826DA6-4FA2-4E98-8024-BC5B71E0893E,10764,20350,-77,-91
BLE,15:44:53:389450100,F7826DA6-4FA2-4E98-8024-BC5B71E0893E,10764,20350,-77,-92
BLE,15:44:54:819359801,F7826DA6-4FA2-4E98-8024-BC5B71E0893E,10764,20350,-77,-92
BLE,15:44:58:471504131,F7826DA6-4FA2-4E98-8024-BC5B71E0893E,10764,20350,-77,-90
BLE,15:45:04:162010669,F7826DA6-4FA2-4E98-8024-BC5B71E0893E,10764,20350,-77,-91
BLE,15:45:05:471459953,F7826DA6-4FA2-4E98-8024-BC5B71E0893E,10764,20350,-77,-91
BLE,15:45:06:890227297,F7826DA6-4FA2-4E98-8024-BC5B71E0893E,10764,20350,-77,-90
BLE,15:45:09:037895207,F7826DA6-4FA2-4E98-8024-BC5B71E0893E,10764,20350,-77,-92
BLE,15:45:12:105095421,F7826DA6-4FA2-4E98-8024-BC5B71E0893E,10764,20350,-77,-91
BLE,15:45:12:233321188,F7826DA6-4FA2-4E98-8024-BC5B71E0893E,10764,20350,-77,-92
BLE,15:45:16:576985948,F7826DA6-4FA2-4E98-8024-BC5B71E0893E,10764,20350,-77,-91
BLE,15:45:20:778170572,F7826DA6-4FA2-4E98-8024-BC5B71E0893E,10764,20350,-77,-92
BLE,15:45:21:451168925,F7826DA6-4FA2-4E98-8024-BC5B71E0893E,10764,20350,-77,-91
BLE,15:45:22:165916816,F7826DA6-4FA2-4E98-8024-BC5B71E0893E,10764,20350,-77,-91
BLE,15:45:26:234673446,F7826DA6-4FA2-4E98-8024-BC5B71E0893E,10764,20350,-77,-91
BLE,15:45:26:423101200,F7826DA6-4FA2-4E98-8024-BC5B71E0893E,10764,20350,-77,-91
BLE,15:45:26:777303132,F7826DA6-4FA2-4E98-8024-BC5B71E0893E,10764,20350,-77,-92
BLE,15:45:28:190958297,F7826DA6-4FA2-4E98-8024-BC5B71E0893E,10764,20350,-77,-91
BLE,15:45:29:247052797,F7826DA6-4FA2-4E98-8024-BC5B71E0893E,10764,20350,-77,-91
BLE,15:45:31:953893523,F7826DA6-4FA2-4E98-8024-BC5B71E0893E,10764,20350,-77,-91
BLE,15:45:38:139699339,F7826DA6-4FA2-4E98-8024-BC5B71E0893E,10764,20350,-77,-93
BLE,15:45:38:457992829,F7826DA6-4FA2-4E98-8024-BC5B71E0893E,10764,20350,-77,-91
BLE,15:45:38:815314127,F7826DA6-4FA2-4E98-8024-BC5B71E0893E,10764,20350,-77,-92
BLE,15:45:40:240899764,F7826DA6-4FA2-4E98-8024-BC5B71E0893E,10764,20350,-77,-92
BLE,15:45:43:842052360,F7826DA6-4FA2-4E98-8024-BC5B71E0893E,10764,20350,-77,-91
BLE,15:45:44:853441930,F7826DA6-4FA2-4E98-8024-BC5B71E0893E,10764,20350,-77,-91
BLE,15:45:45:205744354,F7826DA6-4FA2-4E98-8024-BC5B71E0893E,10764,20350,-77,-91
BLE,15:45:46:622008724,F7826DA6-4FA2-4E98-8024-BC5B71E0893E,10764,20350,-77,-91
BLE,15:45:49:561746096,F7826DA6-4FA2-4E98-8024-BC5B71E0893E,10764,20350,-77,-91
BLE,15:45:56:738060020,F7826DA6-4FA2-4E98-8024-BC5B71E0893E,10764,20350,-77,-91
BLE,15:45:57:259767135,F7826DA6-4FA2-4E98-8024-BC5B71E0893E,10764,20350,-77,-90
BLE,15:46:00:966090562,F7826DA6-4FA2-4E98-8024-BC5B71E0893E,10764,20350,-77,-91
BLE,15:46:02:576882671,F7826DA6-4FA2-4E98-8024-BC5B71E0893E,10764,20350,-77,-91
BLE,15:46:05:913869717,F7826DA6-4FA2-4E98-8024-BC5B71E0893E,10764,20350,-77,-91
BLE,15:46:06:487796815,F7826DA6-4FA2-4E98-8024-BC5B71E0893E,10764,20350,-77,-91
BLE,15:46:07:556990517,F7826DA6-4FA2-4E98-8024-BC5B71E0893E,10764,20350,-77,-91
BLE,15:46:09:881938773,F7826DA6-4FA2-4E98-8024-BC5B71E0893E,10764,20350,-77,-90
BLE,15:46:10:755047958,F7826DA6-4FA2-4E98-8024-BC5B71E0893E,10764,20350,-77,-90
BLE,15:46:11:108775866,F7826DA6-4FA2-4E98-8024-BC5B71E0893E,10764,20350,-77,-90
BLE,15:46:14:109740513,F7826DA6-4FA2-4E98-8024-BC5B71E0893E,10764,20350,-77,-89
BLE,15:46:15:356675690,F7826DA6-4FA2-4E98-8024-BC5B71E0893E,10764,20350,-77,-91
BLE,15:46:18:313727445,F7826DA6-4FA2-4E98-8024-BC5B71E0893E,10764,20350,-77,-91
BLE,15:46:19:959881852,F7826DA6-4FA2-4E98-8024-BC5B71E0893E,10764,20350,-77,-91
BLE,15:46:26:253734324,F7826DA6-4FA2-4E98-8024-BC5B71E0893E,10764,20350,-77,-90
BLE,15:46:31:459826537,F7826DA6-4FA2-4E98-8024-BC5B71E0893E,10764,20350,-77,-93
BLE,15:46:33:949700890,F7826DA6-4FA2-4E98-8024-BC5B71E0893E,10764,20350,-77,-93
BLE,15:46:35:626833124,F7826DA6-4FA2-4E98-8024-BC5B71E0893E,10764,20350,-77,-91
BLE,15:46:37:913857289,F7826DA6-4FA2-4E98-8024-BC5B71E0893E,10764,20350,-77,-93
BLE,15:46:38:819705762,F7826DA6-4FA2-4E98-8024-BC5B71E0893E,10764,20350,-77,-92
BLE,15:46:42:617916256,F7826DA6-4FA2-4E98-8024-BC5B71E0893E,10764,20350,-77,-88
BLE,15:46:53:282066968,F7826DA6-4FA2-4E98-8024-BC5B71E0893E,10764,20350,-77,-93
BLE,15:46:59:481558435,F7826DA6-4FA2-4E98-8024-BC5B71E0893E,10764,20350,-77,-92
BLE:Exited!